0.00000,-5.00000,jeep 0.40365,lawn_mower 0.15384,pickup 0.04329,golfcart 0.02015,school_bus 0.01648
0.00000,-15.00000,lawn_mower 0.58660,tricycle 0.06661,harvester 0.06038,tractor 0.02879,jeep 0.00642
0.00000,-25.00000,traffic_light 0.16644,harvester 0.03337,modem 0.01823,lawn_mower 0.01604,tricycle 0.01425,jeep 0.00397
0.02513,-5.00000,jeep 0.32027,lawn_mower 0.14897,pickup 0.03660,golfcart 0.02578,school_bus 0.02558
0.02513,-15.00000,lawn_mower 0.39198,tricycle 0.12353,tractor 0.07300,harvester 0.05058,jeep 0.01606
0.02513,-25.00000,traffic_light 0.18789,harvester 0.04586,lawn_mower 0.02403,modem 0.01868,tricycle 0.01485,jeep 0.00366
0.05027,-5.00000,jeep 0.64013,school_bus 0.02547,lawn_mower 0.02159,pickup 0.02127,golfcart 0.02103
0.05027,-15.00000,lawn_mower 0.46451,tricycle 0.06908,harvester 0.03454,tractor 0.02791,jeep 0.01973
0.05027,-25.00000,traffic_light 0.19715,lawn_mower 0.08163,harvester 0.05709,tricycle 0.02038,modem 0.01772,jeep 0.00410
0.07540,-5.00000,jeep 0.66169,lawn_mower 0.06106,pickup 0.02101,school_bus 0.01439,amphibian 0.01386
0.07540,-15.00000,lawn_mower 0.11966,tricycle 0.09990,jeep 0.07074,harvester 0.02560,tractor 0.02493
0.07540,-25.00000,traffic_light 0.20425,lawn_mower 0.13577,harvester 0.07394,tricycle 0.01828,modem 0.01162,jeep 0.00324
0.10053,-5.00000,jeep 0.59696,lawn_mower 0.08097,school_bus 0.02389,pickup 0.01811,amphibian 0.01757
0.10053,-15.00000,jeep 0.05406,tricycle 0.04592,lawn_mower 0.02991,harvester 0.02256,tractor 0.01716
0.10053,-25.00000,traffic_light 0.36160,lawn_mower 0.08868,harvester 0.06094,warplane 0.01742,racer 0.01044,jeep 0.00250
0.12566,-5.00000,jeep 0.47149,lawn_mower 0.05300,half_track 0.03750,school_bus 0.02210,pickup 0.02149
0.12566,-15.00000,spotlight 0.04685,traffic_light 0.03913,lawn_mower 0.03679,jeep 0.03640,tricycle 0.02411
0.12566,-25.00000,traffic_light 0.36783,harvester 0.08894,lawn_mower 0.08348,warplane 0.01345,parachute 0.01206,jeep 0.00160
0.15080,-5.00000,jeep 0.74052,half_track 0.02899,lawn_mower 0.02315,pickup 0.01615,school_bus 0.01278
0.15080,-15.00000,jeep 0.10039,lawn_mower 0.05812,traffic_light 0.03059,tricycle 0.02411,spotlight 0.02146
0.15080,-25.00000,traffic_light 0.30203,harvester 0.10544,lawn_mower 0.06337,parachute 0.01594,warplane 0.01427,jeep 0.00159
0.17593,-5.00000,jeep 0.67273,half_track 0.02524,school_bus 0.02332,lawn_mower 0.02322,pickup 0.01062
0.17593,-15.00000,spotlight 0.08612,traffic_light 0.07944,plunger 0.03266,tricycle 0.02794,jeep 0.02185
0.17593,-25.00000,traffic_light 0.24871,harvester 0.11547,lawn_mower 0.04241,parachute 0.02069,warplane 0.00926,jeep 0.00137
0.20106,-5.00000,jeep 0.67101,lawn_mower 0.03046,half_track 0.02576,school_bus 0.02394,pickup 0.01728
0.20106,-15.00000,spotlight 0.05381,traffic_light 0.05177,plunger 0.03535,binoculars 0.02944,tricycle 0.01611,jeep 0.01583
0.20106,-25.00000,traffic_light 0.27846,harvester 0.08094,parachute 0.02219,lawn_mower 0.01865,ashcan 0.01142,jeep 0.00111
0.22619,-5.00000,jeep 0.78578,half_track 0.02726,lawn_mower 0.01512,school_bus 0.01398,pickup 0.00815
0.22619,-15.00000,spotlight 0.13535,plunger 0.05393,traffic_light 0.04042,switch 0.03675,binoculars 0.03364,jeep 0.00256
0.22619,-25.00000,traffic_light 0.30267,harvester 0.04913,parachute 0.03110,birdhouse 0.02069,ashcan 0.01466,jeep 0.00088
0.25133,-5.00000,jeep 0.64259,school_bus 0.03647,half_track 0.03523,lawn_mower 0.02438,pickup 0.02345
0.25133,-15.00000,spotlight 0.18045,traffic_light 0.05503,plunger 0.05159,switch 0.04055,water_bottle 0.01995,jeep 0.00092
0.25133,-25.00000,traffic_light 0.22362,parachute 0.06566,harvester 0.04556,ashcan 0.02079,tricycle 0.01388,jeep 0.00088
0.27646,-5.00000,jeep 0.56870,school_bus 0.08306,pickup 0.02994,lawn_mower 0.02554,half_track 0.02152
0.27646,-15.00000,spotlight 0.16801,traffic_light 0.07112,switch 0.05961,plunger 0.04471,space_heater 0.01626,jeep 0.00093
0.27646,-25.00000,traffic_light 0.33728,parachute 0.06277,harvester 0.02670,ashcan 0.02073,birdhouse 0.02054,jeep 0.00060
0.30159,-5.00000,jeep 0.52877,school_bus 0.06902,half_track 0.03919,lawn_mower 0.03529,pickup 0.03408
0.30159,-15.00000,spotlight 0.08389,traffic_light 0.06223,plunger 0.04223,cup 0.02981,switch 0.02302,jeep 0.00161
0.30159,-25.00000,traffic_light 0.30120,parachute 0.10041,birdhouse 0.02510,harvester 0.02286,ashcan 0.01933,jeep 0.00048
0.32673,-5.00000,jeep 0.51055,school_bus 0.06725,half_track 0.05342,amphibian 0.02865,pickup 0.02695
0.32673,-15.00000,spotlight 0.12504,traffic_light 0.05696,airship 0.03364,cup 0.02799,plunger 0.02571,jeep 0.00123
0.32673,-25.00000,traffic_light 0.29708,parachute 0.07912,birdhouse 0.05643,loudspeaker 0.02151,ashcan 0.01593,jeep 0.00040
0.35186,-5.00000,jeep 0.39235,school_bus 0.23889,pickup 0.02826,amphibian 0.02657,half_track 0.01606
0.35186,-15.00000,spotlight 0.08583,traffic_light 0.04868,switch 0.03113,airship 0.02751,cup 0.02407,jeep 0.00171
0.35186,-25.00000,traffic_light 0.20268,parachute 0.13444,birdhouse 0.07698,airship 0.02284,loudspeaker 0.01936,jeep 0.00033
0.37699,-5.00000,jeep 0.65271,school_bus 0.05730,pickup 0.01776,half_track 0.01468,amphibian 0.01253
0.37699,-15.00000,traffic_light 0.06090,spotlight 0.05302,airship 0.03917,school_bus 0.03399,space_heater 0.02532,jeep 0.00387
0.37699,-25.00000,parachute 0.19534,airship 0.07299,traffic_light 0.07079,wing 0.05239,birdhouse 0.04875,jeep 0.00033
0.40212,-5.00000,jeep 0.62561,school_bus 0.07360,pickup 0.01871,half_track 0.01826,amphibian 0.01005
0.40212,-15.00000,traffic_light 0.09123,space_heater 0.04311,airship 0.04214,school_bus 0.03928,spotlight 0.03729,jeep 0.00219
0.40212,-25.00000,parachute 0.13313,traffic_light 0.11018,airship 0.09070,wing 0.08003,birdhouse 0.04617,jeep 0.00037
0.42726,-5.00000,jeep 0.51902,school_bus 0.07796,pickup 0.01628,amphibian 0.01369,lawn_mower 0.01316
0.42726,-15.00000,traffic_light 0.09811,space_heater 0.06590,birdhouse 0.06071,airship 0.04270,spotlight 0.03132,jeep 0.00053
0.42726,-25.00000,traffic_light 0.17525,parachute 0.12521,airship 0.11337,wing 0.06215,birdhouse 0.03609,jeep 0.00032
0.45239,-5.00000,jeep 0.45609,school_bus 0.06962,half_track 0.02879,amphibian 0.02810,pickup 0.02681
0.45239,-15.00000,birdhouse 0.43354,airship 0.10940,traffic_light 0.05756,space_heater 0.04922,switch 0.01724,jeep 0.00020
0.45239,-25.00000,traffic_light 0.20827,airship 0.18847,parachute 0.08955,birdhouse 0.03209,wing 0.01855,jeep 0.00029
0.47752,-5.00000,jeep 0.41257,school_bus 0.11275,amphibian 0.03929,half_track 0.03867,pickup 0.02787
0.47752,-15.00000,birdhouse 0.40688,airship 0.15449,space_heater 0.04257,traffic_light 0.03458,spotlight 0.03243,jeep 0.00020
0.47752,-25.00000,parachute 0.17682,airship 0.14350,traffic_light 0.09051,birdhouse 0.04177,wing 0.01273,jeep 0.00033
0.50265,-5.00000,jeep 0.31118,school_bus 0.12616,half_track 0.03628,amphibian 0.02314,tow_truck 0.02200
0.50265,-15.00000,birdhouse 0.48977,airship 0.07667,space_heater 0.03716,traffic_light 0.02525,modem 0.02455,jeep 0.00011
0.50265,-25.00000,parachute 0.20237,traffic_light 0.09476,airship 0.07847,birdhouse 0.04890,loudspeaker 0.00926,jeep 0.00039
0.52779,-5.00000,jeep 0.20142,school_bus 0.19249,power_drill 0.03219,tow_truck 0.02751,crane 0.02034
0.52779,-15.00000,birdhouse 0.57360,airship 0.04218,space_heater 0.03710,spotlight 0.02594,traffic_light 0.02171,jeep 0.00017
0.52779,-25.00000,airship 0.31361,traffic_light 0.11900,parachute 0.06388,birdhouse 0.04538,loudspeaker 0.00905,jeep 0.00038
0.55292,-5.00000,school_bus 0.25295,jeep 0.20630,crane 0.02936,half_track 0.02920,power_drill 0.02486
0.55292,-15.00000,birdhouse 0.70231,airship 0.03487,space_heater 0.02773,spotlight 0.01979,traffic_light 0.01506,jeep 0.00012
0.55292,-25.00000,airship 0.36043,traffic_light 0.11893,parachute 0.05535,birdhouse 0.02528,modem 0.00742,jeep 0.00044
0.57805,-5.00000,school_bus 0.21598,jeep 0.10477,half_track 0.04891,power_drill 0.04820,amphibian 0.03870
0.57805,-15.00000,birdhouse 0.46007,airship 0.18059,space_heater 0.02406,spotlight 0.02287,traffic_light 0.01858,jeep 0.00022
0.57805,-25.00000,airship 0.43651,parachute 0.07094,traffic_light 0.03304,birdhouse 0.01640,lifeboat 0.00699,jeep 0.00049
0.60319,-5.00000,school_bus 0.16332,half_track 0.07875,power_drill 0.07627,crane 0.04999,jeep 0.03776
0.60319,-15.00000,birdhouse 0.26142,airship 0.25844,traffic_light 0.02811,spotlight 0.02474,space_heater 0.01695,jeep 0.00031
0.60319,-25.00000,airship 0.54974,parachute 0.06839,birdhouse 0.02026,traffic_light 0.01390,balloon 0.00755,jeep 0.00035
0.62832,-5.00000,school_bus 0.30977,power_drill 0.08476,half_track 0.06787,crane 0.04198,jeep 0.03811
0.62832,-15.00000,birdhouse 0.49209,airship 0.12059,traffic_light 0.02552,spotlight 0.02118,space_heater 0.01623,jeep 0.00029
0.62832,-25.00000,airship 0.39934,birdhouse 0.07203,parachute 0.07080,traffic_light 0.01913,balloon 0.00658,jeep 0.00045
0.65345,-5.00000,school_bus 0.37888,power_drill 0.15397,crane 0.02139,forklift 0.01722,lawn_mower 0.01376,jeep 0.01202
0.65345,-15.00000,birdhouse 0.68732,airship 0.06731,traffic_light 0.03028,space_heater 0.02018,spotlight 0.01386,jeep 0.00012
0.65345,-25.00000,airship 0.18301,birdhouse 0.16286,parachute 0.04666,traffic_light 0.04561,ashcan 0.01103,jeep 0.00058
0.67858,-5.00000,school_bus 0.55822,power_drill 0.06757,crane 0.02587,lawn_mower 0.01182,forklift 0.01078,jeep 0.00740
0.67858,-15.00000,birdhouse 0.72127,airship 0.05693,traffic_light 0.02837,space_heater 0.01478,spotlight 0.01093,jeep 0.00009
0.67858,-25.00000,birdhouse 0.24263,airship 0.06352,parachute 0.06055,traffic_light 0.04531,ashcan 0.01242,jeep 0.00054
0.70372,-5.00000,school_bus 0.51337,power_drill 0.14434,crane 0.01714,lawn_mower 0.01644,screwdriver 0.00880,jeep 0.00357
0.70372,-15.00000,birdhouse 0.57009,airship 0.07009,traffic_light 0.06869,space_heater 0.02853,spotlight 0.01488,jeep 0.00011
0.70372,-25.00000,birdhouse 0.15368,traffic_light 0.09053,airship 0.07433,parachute 0.05606,loudspeaker 0.01671,jeep 0.00065
0.72885,-5.00000,school_bus 0.27697,power_drill 0.26286,swab 0.02673,crane 0.02405,screwdriver 0.02035,jeep 0.00218
0.72885,-15.00000,birdhouse 0.46226,airship 0.08434,traffic_light 0.06158,space_heater 0.02965,spotlight 0.01465,jeep 0.00017
0.72885,-25.00000,birdhouse 0.19109,traffic_light 0.06648,parachute 0.06617,airship 0.05468,warplane 0.01360,jeep 0.00059
0.75398,-5.00000,power_drill 0.41497,school_bus 0.13564,lawn_mower 0.02987,screwdriver 0.02505,crane 0.02048,jeep 0.00216
0.75398,-15.00000,birdhouse 0.59936,airship 0.05323,traffic_light 0.03951,modem 0.01591,space_heater 0.01544,jeep 0.00012
0.75398,-25.00000,airship 0.16966,birdhouse 0.11019,parachute 0.06989,traffic_light 0.05664,warplane 0.01505,jeep 0.00059
0.77911,-5.00000,power_drill 0.74327,carpenter's_kit 0.02722,screwdriver 0.02484,school_bus 0.01822,switch 0.01237,jeep 0.00037
0.77911,-15.00000,birdhouse 0.65760,airship 0.06187,traffic_light 0.05122,space_heater 0.01859,modem 0.01346,jeep 0.00010
0.77911,-25.00000,parachute 0.19857,airship 0.04700,birdhouse 0.04062,traffic_light 0.02866,balloon 0.02431,jeep 0.00070
0.80425,-5.00000,power_drill 0.71919,screwdriver 0.02760,carpenter's_kit 0.01820,school_bus 0.01803,lawn_mower 0.01235,jeep 0.00034
0.80425,-15.00000,birdhouse 0.52960,airship 0.13884,traffic_light 0.05387,modem 0.03478,space_heater 0.01840,jeep 0.00010
0.80425,-25.00000,parachute 0.10177,traffic_light 0.09787,birdhouse 0.06921,airship 0.06303,balloon 0.02402,jeep 0.00056
0.82938,-5.00000,power_drill 0.82733,screwdriver 0.02138,carpenter's_kit 0.01105,school_bus 0.00871,swab 0.00739,jeep 0.00015
0.82938,-15.00000,birdhouse 0.67762,airship 0.09329,traffic_light 0.03961,modem 0.02192,space_heater 0.01074,jeep 0.00007
0.82938,-25.00000,birdhouse 0.18643,traffic_light 0.11239,parachute 0.08166,airship 0.05392,balloon 0.01610,jeep 0.00041
0.85451,-5.00000,power_drill 0.61754,school_bus 0.03606,switch 0.02999,screwdriver 0.02704,chain_saw 0.01253,jeep 0.00030
0.85451,-15.00000,birdhouse 0.82168,traffic_light 0.01983,airship 0.01833,modem 0.00624,space_heater 0.00497,jeep 0.00008
0.85451,-25.00000,parachute 0.15853,birdhouse 0.12235,traffic_light 0.08131,ashcan 0.02044,balloon 0.01753,jeep 0.00062
0.87965,-5.00000,power_drill 0.44548,school_bus 0.11417,chain_saw 0.03230,switch 0.03096,screwdriver 0.02009,jeep 0.00053
0.87965,-15.00000,birdhouse 0.83166,airship 0.02034,traffic_light 0.00972,modem 0.00740,space_heater 0.00502,jeep 0.00007
0.87965,-25.00000,parachute 0.15672,birdhouse 0.07354,traffic_light 0.05065,mortarboard 0.03102,ashcan 0.03056,jeep 0.00068
0.90478,-5.00000,power_drill 0.31481,school_bus 0.06944,switch 0.04298,screwdriver 0.03371,vacuum 0.02713,jeep 0.00087
0.90478,-15.00000,birdhouse 0.77620,airship 0.02025,traffic_light 0.01286,modem 0.01111,spotlight 0.00682,jeep 0.00011
0.90478,-25.00000,traffic_light 0.10699,parachute 0.10249,birdhouse 0.10075,airship 0.05555,ashcan 0.02243,jeep 0.00058
0.92991,-5.00000,power_drill 0.30901,school_bus 0.06586,vacuum 0.04157,screwdriver 0.03115,lawn_mower 0.02328,jeep 0.00074
0.92991,-15.00000,birdhouse 0.70007,airship 0.01835,traffic_light 0.01464,modem 0.01354,spotlight 0.00977,jeep 0.00017
0.92991,-25.00000,parachute 0.17824,traffic_light 0.11270,airship 0.05598,warplane 0.04332,birdhouse 0.02371,jeep 0.00070
0.95504,-5.00000,power_drill 0.24444,switch 0.06547,vacuum 0.04811,lawn_mower 0.03554,school_bus 0.02331,jeep 0.00092
0.95504,-15.00000,birdhouse 0.45165,traffic_light 0.03878,airship 0.03622,modem 0.02658,spotlight 0.01868,jeep 0.00029
0.95504,-25.00000,parachute 0.13297,traffic_light 0.12775,airship 0.07557,warplane 0.07127,birdhouse 0.02161,jeep 0.00066
0.98018,-5.00000,power_drill 0.24552,switch 0.05344,school_bus 0.03644,spotlight 0.03220,lawn_mower 0.03073,jeep 0.00127
0.98018,-15.00000,birdhouse 0.31836,traffic_light 0.04654,accordion 0.02936,airship 0.02699,space_heater 0.02075,jeep 0.00048
0.98018,-25.00000,parachute 0.14361,traffic_light 0.13472,warplane 0.07527,birdhouse 0.03626,airship 0.03609,jeep 0.00060
1.00531,-5.00000,power_drill 0.26555,switch 0.03700,vacuum 0.03611,school_bus 0.03508,lawn_mower 0.03209,jeep 0.00121
1.00531,-15.00000,birdhouse 0.41397,traffic_light 0.07804,accordion 0.02394,space_heater 0.01857,spotlight 0.01038,jeep 0.00056
1.00531,-25.00000,parachute 0.18998,traffic_light 0.12946,warplane 0.05158,birdhouse 0.04267,ashcan 0.02157,jeep 0.00058
1.03044,-5.00000,power_drill 0.23234,lawn_mower 0.05237,switch 0.04783,vacuum 0.04026,spotlight 0.03123,jeep 0.00111
1.03044,-15.00000,accordion 0.22160,birdhouse 0.16964,traffic_light 0.09311,space_heater 0.01881,spotlight 0.01053,jeep 0.00079
1.03044,-25.00000,traffic_light 0.15103,birdhouse 0.12471,parachute 0.10934,warplane 0.03513,ashcan 0.02408,jeep 0.00052
1.05558,-5.00000,power_drill 0.32251,switch 0.06611,vacuum 0.03845,lawn_mower 0.03306,spotlight 0.02548,jeep 0.00060
1.05558,-15.00000,birdhouse 0.36141,traffic_light 0.10059,accordion 0.08129,space_heater 0.01249,spotlight 0.00954,jeep 0.00059
1.05558,-25.00000,parachute 0.17535,birdhouse 0.16044,traffic_light 0.10586,warplane 0.01906,ashcan 0.01858,jeep 0.00048
1.08071,-5.00000,power_drill 0.28925,switch 0.07831,lawn_mower 0.04049,radio 0.03644,joystick 0.02171,jeep 0.00064
1.08071,-15.00000,accordion 0.61073,traffic_light 0.06024,birdhouse 0.01619,space_heater 0.00864,grand_piano 0.00689,jeep 0.00062
1.08071,-25.00000,birdhouse 0.17320,parachute 0.13411,traffic_light 0.12628,warplane 0.02364,wing 0.02237,jeep 0.00049
1.10584,-5.00000,power_drill 0.31282,switch 0.08611,lawn_mower 0.04726,joystick 0.02952,radio 0.02761,jeep 0.00059
1.10584,-15.00000,accordion 0.68500,traffic_light 0.06425,grand_piano 0.01298,space_heater 0.00723,upright 0.00479,jeep 0.00051
1.10584,-25.00000,birdhouse 0.18073,traffic_light 0.16223,parachute 0.08201,ashcan 0.04162,wing 0.02372,jeep 0.00045
1.13097,-5.00000,power_drill 0.28533,switch 0.07632,lawn_mower 0.05638,joystick 0.03930,vacuum 0.03220,jeep 0.00050
1.13097,-15.00000,accordion 0.84491,traffic_light 0.01861,grand_piano 0.01745,upright 0.00550,space_heater 0.00358,jeep 0.00024
1.13097,-25.00000,traffic_light 0.17261,birdhouse 0.14585,wing 0.05856,ashcan 0.04820,parachute 0.03713,jeep 0.00039
1.15611,-5.00000,switch 0.16619,power_drill 0.11990,lawn_mower 0.05764,joystick 0.04764,space_heater 0.03806,jeep 0.00059
1.15611,-15.00000,accordion 0.91610,grand_piano 0.01687,traffic_light 0.00677,upright 0.00526,space_heater 0.00175,jeep 0.00013
1.15611,-25.00000,traffic_light 0.16778,warplane 0.07738,wing 0.06454,birdhouse 0.06062,parachute 0.04267,jeep 0.00048
1.18124,-5.00000,switch 0.16135,power_drill 0.08193,vacuum 0.06871,joystick 0.05467,lawn_mower 0.04782,jeep 0.00051
1.18124,-15.00000,accordion 0.97530,grand_piano 0.00594,upright 0.00213,traffic_light 0.00090,space_heater 0.00032,jeep 0.00003
1.18124,-25.00000,traffic_light 0.13875,warplane 0.08988,wing 0.08095,parachute 0.06748,birdhouse 0.03783,jeep 0.00050
1.20637,-5.00000,switch 0.33843,joystick 0.07885,power_drill 0.07178,vacuum 0.04725,radio 0.03306,jeep 0.00030
1.20637,-15.00000,accordion 0.98083,grand_piano 0.00399,upright 0.00213,traffic_light 0.00075,organ 0.00035,jeep 0.00002
1.20637,-25.00000,traffic_light 0.33213,warplane 0.06627,wing 0.04421,parachute 0.03463,birdhouse 0.02734,jeep 0.00041
1.23150,-5.00000,switch 0.21434,power_drill 0.19443,joystick 0.08317,vacuum 0.03560,lawn_mower 0.03086,jeep 0.00028
1.23150,-15.00000,accordion 0.98633,grand_piano 0.00422,upright 0.00192,traffic_light 0.00054,organ 0.00019,jeep 0.00001
1.23150,-25.00000,traffic_light 0.40580,warplane 0.04663,parachute 0.04214,wing 0.03130,ashcan 0.02500,jeep 0.00037
1.25664,-5.00000,power_drill 0.28516,switch 0.09513,joystick 0.08489,lawn_mower 0.03215,vacuum 0.02757,jeep 0.00026
1.25664,-15.00000,accordion 0.99363,grand_piano 0.00173,upright 0.00062,common_iguana 0.00018,traffic_light 0.00009,jeep 0.00001
1.25664,-25.00000,traffic_light 0.46603,parachute 0.04924,warplane 0.03251,birdhouse 0.02574,ashcan 0.02098,jeep 0.00040
1.28177,-5.00000,power_drill 0.10914,joystick 0.10370,switch 0.09375,vacuum 0.07383,lawn_mower 0.05553,jeep 0.00024
1.28177,-15.00000,accordion 0.99187,grand_piano 0.00239,upright 0.00097,traffic_light 0.00018,common_iguana 0.00013,jeep 0.00001
1.28177,-25.00000,traffic_light 0.56423,parachute 0.04037,birdhouse 0.03777,ashcan 0.01541,warplane 0.00993,jeep 0.00037
1.30690,-5.00000,joystick 0.13522,power_drill 0.09751,lawn_mower 0.08539,vacuum 0.08235,switch 0.05266,jeep 0.00036
1.30690,-15.00000,accordion 0.97940,grand_piano 0.00583,upright 0.00212,traffic_light 0.00099,switch 0.00046,jeep 0.00002
1.30690,-25.00000,traffic_light 0.62508,birdhouse 0.04494,parachute 0.03737,ashcan 0.00785,swing 0.00700,jeep 0.00033
1.33204,-5.00000,joystick 0.13906,switch 0.11225,lawn_mower 0.07217,vacuum 0.05736,power_drill 0.05226,jeep 0.00030
1.33204,-15.00000,accordion 0.88766,grand_piano 0.02886,traffic_light 0.01540,upright 0.00859,switch 0.00504,jeep 0.00008
1.33204,-25.00000,traffic_light 0.62846,parachute 0.04614,birdhouse 0.03774,swing 0.01531,crane 0.00799,jeep 0.00035
1.35717,-5.00000,lawn_mower 0.12424,power_drill 0.12194,vacuum 0.10298,joystick 0.05851,tripod 0.04023,jeep 0.00038
1.35717,-15.00000,accordion 0.93326,grand_piano 0.01436,traffic_light 0.00841,switch 0.00421,upright 0.00367,jeep 0.00005
1.35717,-25.00000,traffic_light 0.56588,birdhouse 0.04767,parachute 0.04418,swing 0.01122,crane 0.01034,jeep 0.00042
1.38230,-5.00000,power_drill 0.10832,lawn_mower 0.10469,vacuum 0.09794,joystick 0.09038,tripod 0.05701,jeep 0.00030
1.38230,-15.00000,traffic_light 0.36062,accordion 0.30623,switch 0.12355,grand_piano 0.01503,birdhouse 0.01050,jeep 0.00020
1.38230,-25.00000,traffic_light 0.59355,parachute 0.02957,birdhouse 0.02641,crane 0.01042,swing 0.00854,jeep 0.00045
1.40743,-5.00000,vacuum 0.10063,switch 0.09236,joystick 0.07946,lawn_mower 0.06948,tripod 0.06131,jeep 0.00028
1.40743,-15.00000,accordion 0.40193,traffic_light 0.21500,switch 0.11009,grand_piano 0.03440,upright 0.00939,jeep 0.00031
1.40743,-25.00000,traffic_light 0.43896,birdhouse 0.11294,parachute 0.03004,crane 0.01138,ashcan 0.01029,jeep 0.00049
1.43257,-5.00000,vacuum 0.19458,lawn_mower 0.11067,tripod 0.04563,power_drill 0.04029,radio 0.03505,jeep 0.00040
1.43257,-15.00000,accordion 0.61250,traffic_light 0.15035,switch 0.04955,grand_piano 0.02806,upright 0.00553,jeep 0.00025
1.43257,-25.00000,traffic_light 0.69137,birdhouse 0.07284,parachute 0.02037,ashcan 0.00482,spotlight 0.00359,jeep 0.00029
1.45770,-5.00000,vacuum 0.12313,lawn_mower 0.11274,switch 0.05882,tripod 0.04104,projector 0.03463,jeep 0.00056
1.45770,-15.00000,accordion 0.47571,traffic_light 0.18865,grand_piano 0.04726,switch 0.02804,upright 0.00950,jeep 0.00044
1.45770,-25.00000,traffic_light 0.93401,parachute 0.00522,birdhouse 0.00377,switch 0.00105,loudspeaker 0.00102,jeep 0.00011
1.48283,-5.00000,lawn_mower 0.17117,vacuum 0.13566,switch 0.08009,projector 0.03582,radio 0.03574,jeep 0.00075
1.48283,-15.00000,traffic_light 0.47630,accordion 0.16296,switch 0.06569,grand_piano 0.03212,upright 0.00675,jeep 0.00047
1.48283,-25.00000,traffic_light 0.98043,birdhouse 0.00079,parachute 0.00057,loudspeaker 0.00050,switch 0.00043,jeep 0.00004
1.50796,-5.00000,vacuum 0.17299,lawn_mower 0.07829,switch 0.07132,radio 0.05117,projector 0.04424,jeep 0.00055
1.50796,-15.00000,traffic_light 0.81555,switch 0.06336,accordion 0.01269,grand_piano 0.00512,mailbox 0.00371,jeep 0.00017
1.50796,-25.00000,traffic_light 0.99496,loudspeaker 0.00022,switch 0.00018,spotlight 0.00011,birdhouse 0.00009,jeep 0.00001
1.53310,-5.00000,vacuum 0.12286,switch 0.10486,projector 0.10331,lawn_mower 0.09811,accordion 0.02990,jeep 0.00056
1.53310,-15.00000,traffic_light 0.92247,switch 0.02658,birdhouse 0.00193,accordion 0.00161,mailbox 0.00136,jeep 0.00008
1.53310,-25.00000,traffic_light 0.99318,switch 0.00025,loudspeaker 0.00024,spotlight 0.00020,wall_clock 0.00019,jeep 0.00002
1.55823,-5.00000,switch 0.25502,projector 0.10684,vacuum 0.07674,lawn_mower 0.03993,power_drill 0.03830,jeep 0.00031
1.55823,-15.00000,traffic_light 0.95881,switch 0.02318,birdhouse 0.00150,mailbox 0.00079,loudspeaker 0.00074,jeep 0.00003
1.55823,-25.00000,traffic_light 0.98995,switch 0.00055,spotlight 0.00037,loudspeaker 0.00037,wall_clock 0.00022,jeep 0.00003
1.58336,-5.00000,projector 0.37737,switch 0.10196,vacuum 0.06715,radio 0.03768,lawn_mower 0.03292,jeep 0.00040
1.58336,-15.00000,traffic_light 0.74727,switch 0.20827,birdhouse 0.00305,mailbox 0.00213,loudspeaker 0.00178,jeep 0.00004
1.58336,-25.00000,traffic_light 0.99159,switch 0.00046,loudspeaker 0.00027,spotlight 0.00026,wall_clock 0.00019,jeep 0.00003
1.60850,-5.00000,projector 0.17917,vacuum 0.11199,switch 0.09104,lawn_mower 0.07133,tripod 0.03612,jeep 0.00056
1.60850,-15.00000,traffic_light 0.92848,switch 0.04110,birdhouse 0.00116,grand_piano 0.00087,loudspeaker 0.00083,jeep 0.00003
1.60850,-25.00000,traffic_light 0.98842,loudspeaker 0.00046,switch 0.00043,wall_clock 0.00031,spotlight 0.00027,jeep 0.00003
1.63363,-5.00000,vacuum 0.15268,switch 0.10533,tripod 0.08922,lawn_mower 0.04575,projector 0.04214,jeep 0.00039
1.63363,-15.00000,traffic_light 0.82328,switch 0.06996,accordion 0.00835,grand_piano 0.00484,hook 0.00296,jeep 0.00011
1.63363,-25.00000,traffic_light 0.94716,loudspeaker 0.00179,switch 0.00171,wall_clock 0.00162,spotlight 0.00122,jeep 0.00011
1.65876,-5.00000,vacuum 0.19475,projector 0.07588,radio 0.06814,switch 0.05746,lawn_mower 0.05452,jeep 0.00040
1.65876,-15.00000,traffic_light 0.58228,accordion 0.10037,switch 0.06840,grand_piano 0.01997,upright 0.00547,jeep 0.00027
1.65876,-25.00000,traffic_light 0.83137,birdhouse 0.00912,loudspeaker 0.00566,switch 0.00498,wall_clock 0.00420,jeep 0.00021
1.68389,-5.00000,radio 0.19513,vacuum 0.08725,projector 0.07154,switch 0.06574,lawn_mower 0.03938,jeep 0.00030
1.68389,-15.00000,accordion 0.41661,traffic_light 0.16921,grand_piano 0.05159,switch 0.03987,upright 0.01370,jeep 0.00032
1.68389,-25.00000,traffic_light 0.76535,birdhouse 0.02326,switch 0.01065,loudspeaker 0.00610,crane 0.00370,jeep 0.00027
1.70903,-5.00000,radio 0.20556,vacuum 0.10694,switch 0.08512,projector 0.05181,tripod 0.03820,jeep 0.00025
1.70903,-15.00000,accordion 0.77150,grand_piano 0.04984,traffic_light 0.02673,upright 0.01228,switch 0.00675,jeep 0.00015
1.70903,-25.00000,traffic_light 0.63171,birdhouse 0.12322,switch 0.00922,loudspeaker 0.00672,mailbox 0.00658,jeep 0.00027
1.73416,-5.00000,radio 0.16106,vacuum 0.10673,switch 0.06580,projector 0.04642,space_bar 0.03835,jeep 0.00032
1.73416,-15.00000,accordion 0.46290,grand_piano 0.09906,traffic_light 0.08881,switch 0.03034,upright 0.02619,jeep 0.00033
1.73416,-25.00000,traffic_light 0.39484,birdhouse 0.29192,loudspeaker 0.01078,switch 0.00777,mailbox 0.00673,jeep 0.00036
1.75929,-5.00000,radio 0.19522,switch 0.07935,vacuum 0.05457,space_bar 0.05127,lawn_mower 0.03580,jeep 0.00023
1.75929,-15.00000,accordion 0.62995,grand_piano 0.09100,upright 0.02495,traffic_light 0.02439,switch 0.00815,jeep 0.00026
1.75929,-25.00000,traffic_light 0.37644,birdhouse 0.22671,switch 0.01438,loudspeaker 0.01048,pencil_sharpener 0.00935,jeep 0.00041
1.78442,-5.00000,radio 0.11149,switch 0.08258,lawn_mower 0.06764,carpenter's_kit 0.05855,power_drill 0.05482,jeep 0.00024
1.78442,-15.00000,accordion 0.82529,grand_piano 0.05889,upright 0.01765,switch 0.00219,traffic_light 0.00192,jeep 0.00010
1.78442,-25.00000,traffic_light 0.42124,birdhouse 0.21014,switch 0.01372,matchstick 0.00910,loudspeaker 0.00847,jeep 0.00033
1.80956,-5.00000,radio 0.11411,power_drill 0.09375,space_bar 0.06945,lawn_mower 0.06720,vacuum 0.05427,jeep 0.00028
1.80956,-15.00000,accordion 0.82418,grand_piano 0.05174,upright 0.01941,switch 0.00270,traffic_light 0.00176,jeep 0.00010
1.80956,-25.00000,traffic_light 0.46262,birdhouse 0.36130,loudspeaker 0.01001,switch 0.00699,ashcan 0.00341,jeep 0.00011
1.83469,-5.00000,power_drill 0.13158,space_bar 0.09381,radio 0.06759,carpenter's_kit 0.05936,switch 0.05654,jeep 0.00025
1.83469,-15.00000,accordion 0.85888,grand_piano 0.03283,upright 0.01381,common_iguana 0.00188,switch 0.00125,jeep 0.00010
1.83469,-25.00000,traffic_light 0.50846,birdhouse 0.23579,loudspeaker 0.01635,pencil_sharpener 0.00651,ashcan 0.00642,jeep 0.00017
1.85982,-5.00000,power_drill 0.17728,lawn_mower 0.06296,radio 0.06193,space_bar 0.05171,carpenter's_kit 0.03740,jeep 0.00026
1.85982,-15.00000,accordion 0.88874,grand_piano 0.03821,upright 0.01691,common_iguana 0.00091,organ 0.00073,jeep 0.00006
1.85982,-25.00000,traffic_light 0.69358,birdhouse 0.11780,loudspeaker 0.01134,switch 0.01014,pencil_sharpener 0.00607,jeep 0.00014
1.88496,-5.00000,power_drill 0.10723,lawn_mower 0.08978,radio 0.06678,space_bar 0.06252,switch 0.03944,jeep 0.00030
1.88496,-15.00000,accordion 0.89618,grand_piano 0.02846,upright 0.01201,common_iguana 0.00080,organ 0.00076,jeep 0.00008
1.88496,-25.00000,traffic_light 0.48640,birdhouse 0.20725,loudspeaker 0.01444,ashcan 0.01117,parachute 0.00816,jeep 0.00027
1.91009,-5.00000,power_drill 0.10736,radio 0.04972,switch 0.04083,space_bar 0.04004,carpenter's_kit 0.03213,jeep 0.00030
1.91009,-15.00000,accordion 0.89312,grand_piano 0.03526,upright 0.01304,organ 0.00097,common_iguana 0.00059,jeep 0.00006
1.91009,-25.00000,traffic_light 0.66059,birdhouse 0.07780,loudspeaker 0.01019,parachute 0.00947,ashcan 0.00785,jeep 0.00022
1.93522,-5.00000,power_drill 0.08592,lawn_mower 0.05680,space_bar 0.03573,radio 0.02826,carpenter's_kit 0.02648,jeep 0.00036
1.93522,-15.00000,accordion 0.92574,grand_piano 0.02544,upright 0.00883,organ 0.00058,common_iguana 0.00056,jeep 0.00005
1.93522,-25.00000,traffic_light 0.68359,birdhouse 0.10645,loudspeaker 0.00771,parachute 0.00704,switch 0.00648,jeep 0.00017
1.96035,-5.00000,power_drill 0.16309,radio 0.04501,carpenter's_kit 0.03486,lawn_mower 0.02612,crane 0.01990,jeep 0.00032
1.96035,-15.00000,accordion 0.94267,grand_piano 0.02249,upright 0.00694,common_iguana 0.00060,sax 0.00034,jeep 0.00004
1.96035,-25.00000,traffic_light 0.57708,birdhouse 0.17268,switch 0.01048,parachute 0.00702,ashcan 0.00636,jeep 0.00019
1.98549,-5.00000,power_drill 0.15689,carpenter's_kit 0.05187,space_bar 0.03225,lawn_mower 0.02343,radio 0.02204,jeep 0.00025
1.98549,-15.00000,accordion 0.91485,grand_piano 0.04514,upright 0.01084,common_iguana 0.00044,cello 0.00041,jeep 0.00004
1.98549,-25.00000,traffic_light 0.63471,birdhouse 0.10831,parachute 0.01973,switch 0.01153,ashcan 0.00871,jeep 0.00021
2.01062,-5.00000,power_drill 0.14115,carpenter's_kit 0.08907,screwdriver 0.03113,lawn_mower 0.02180,school_bus 0.02017,jeep 0.00034
2.01062,-15.00000,accordion 0.93868,grand_piano 0.03076,upright 0.00726,common_iguana 0.00040,organ 0.00030,jeep 0.00003
2.01062,-25.00000,traffic_light 0.48655,birdhouse 0.08560,parachute 0.02689,ashcan 0.02357,swing 0.01919,jeep 0.00027
2.03575,-5.00000,power_drill 0.15822,carpenter's_kit 0.06728,space_bar 0.03542,radio 0.02374,lawn_mower 0.02154,jeep 0.00037
2.03575,-15.00000,accordion 0.94128,grand_piano 0.02853,upright 0.00612,common_iguana 0.00041,sax 0.00031,jeep 0.00003
2.03575,-25.00000,traffic_light 0.31812,birdhouse 0.09188,parachute 0.04502,ashcan 0.03659,swing 0.01830,jeep 0.00031
2.06088,-5.00000,power_drill 0.30699,carpenter's_kit 0.08436,screwdriver 0.02265,space_bar 0.02119,lawn_mower 0.01677,jeep 0.00037
2.06088,-15.00000,accordion 0.95020,grand_piano 0.01979,upright 0.00455,common_iguana 0.00038,typewriter_keyboard 0.00038,jeep 0.00003
2.06088,-25.00000,traffic_light 0.18843,birdhouse 0.11886,parachute 0.07472,ashcan 0.04408,folding_chair 0.01593,jeep 0.00035
2.08602,-5.00000,power_drill 0.18427,carpenter's_kit 0.11548,screwdriver 0.03871,radio 0.02298,lawn_mower 0.01871,jeep 0.00031
2.08602,-15.00000,accordion 0.95066,grand_piano 0.01391,upright 0.00352,typewriter_keyboard 0.00076,space_bar 0.00046,jeep 0.00004
2.08602,-25.00000,traffic_light 0.21077,parachute 0.19115,ashcan 0.04087,folding_chair 0.01929,birdhouse 0.01840,jeep 0.00055
2.11115,-5.00000,power_drill 0.15847,carpenter's_kit 0.12495,radio 0.04057,lawn_mower 0.02219,screwdriver 0.02095,jeep 0.00042
2.11115,-15.00000,accordion 0.93556,grand_piano 0.01458,upright 0.00424,typewriter_keyboard 0.00166,electric_guitar 0.00090,jeep 0.00005
2.11115,-25.00000,traffic_light 0.32414,parachute 0.15160,ashcan 0.04485,birdhouse 0.02223,swing 0.01420,jeep 0.00042
2.13628,-5.00000,power_drill 0.17061,carpenter's_kit 0.15444,lawn_mower 0.03389,radio 0.02195,screwdriver 0.02006,jeep 0.00040
2.13628,-15.00000,accordion 0.93776,grand_piano 0.01356,upright 0.00395,typewriter_keyboard 0.00153,space_bar 0.00093,jeep 0.00005
2.13628,-25.00000,parachute 0.27578,traffic_light 0.15494,ashcan 0.06757,birdhouse 0.02575,swing 0.01947,jeep 0.00031
2.16142,-5.00000,power_drill 0.20389,carpenter's_kit 0.11950,lawn_mower 0.04581,switch 0.02145,radio 0.02017,jeep 0.00049
2.16142,-15.00000,accordion 0.94042,grand_piano 0.01281,upright 0.00318,typewriter_keyboard 0.00207,switch 0.00182,jeep 0.00004
2.16142,-25.00000,parachute 0.32952,traffic_light 0.13065,ashcan 0.05435,swing 0.03474,birdhouse 0.02136,jeep 0.00025
2.18655,-5.00000,carpenter's_kit 0.14151,power_drill 0.13410,lawn_mower 0.04477,radio 0.02660,vacuum 0.01714,jeep 0.00050
2.18655,-15.00000,accordion 0.92419,grand_piano 0.01617,upright 0.00412,switch 0.00240,typewriter_keyboard 0.00222,jeep 0.00006
2.18655,-25.00000,parachute 0.25567,traffic_light 0.22235,ashcan 0.04004,birdhouse 0.03430,swing 0.02972,jeep 0.00027
2.21168,-5.00000,power_drill 0.18360,carpenter's_kit 0.11684,lawn_mower 0.07880,chain_saw 0.01762,vacuum 0.01746,jeep 0.00043
2.21168,-15.00000,accordion 0.83352,grand_piano 0.02027,upright 0.00746,switch 0.00586,typewriter_keyboard 0.00330,jeep 0.00013
2.21168,-25.00000,parachute 0.26340,traffic_light 0.24138,ashcan 0.03277,swing 0.03073,warplane 0.02331,jeep 0.00030
2.23681,-5.00000,power_drill 0.21569,chain_saw 0.07208,lawn_mower 0.06734,carpenter's_kit 0.06040,vacuum 0.02395,jeep 0.00036
2.23681,-15.00000,accordion 0.77503,grand_piano 0.01665,switch 0.00975,upright 0.00704,typewriter_keyboard 0.00469,jeep 0.00015
2.23681,-25.00000,parachute 0.54181,traffic_light 0.06004,swing 0.03750,ashcan 0.01995,warplane 0.01807,jeep 0.00032
2.26195,-5.00000,power_drill 0.32620,carpenter's_kit 0.08627,lawn_mower 0.04834,chain_saw 0.03486,vacuum 0.02156,jeep 0.00036
2.26195,-15.00000,accordion 0.53796,switch 0.02652,swing 0.00998,grand_piano 0.00910,joystick 0.00597,jeep 0.00027
2.26195,-25.00000,parachute 0.49944,swing 0.04840,traffic_light 0.04780,ashcan 0.02140,warplane 0.01135,jeep 0.00042
2.28708,-5.00000,power_drill 0.31556,carpenter's_kit 0.10134,chain_saw 0.08256,lawn_mower 0.04192,vacuum 0.01842,jeep 0.00035
2.28708,-15.00000,accordion 0.50747,switch 0.02553,grand_piano 0.00998,joystick 0.00903,swing 0.00804,jeep 0.00027
2.28708,-25.00000,parachute 0.58563,swing 0.04827,traffic_light 0.02817,ashcan 0.01706,warplane 0.00788,jeep 0.00037
2.31221,-5.00000,power_drill 0.39220,carpenter's_kit 0.06682,lawn_mower 0.03555,chain_saw 0.03098,vacuum 0.01700,jeep 0.00037
2.31221,-15.00000,accordion 0.31419,switch 0.02852,modem 0.01447,joystick 0.01445,paintbrush 0.01286,jeep 0.00036
2.31221,-25.00000,parachute 0.62516,swing 0.03904,traffic_light 0.02248,ashcan 0.01504,warplane 0.00735,jeep 0.00037
2.33734,-5.00000,power_drill 0.41264,carpenter's_kit 0.13956,lawn_mower 0.03378,swab 0.02120,screwdriver 0.02036,jeep 0.00035
2.33734,-15.00000,accordion 0.07112,switch 0.04269,modem 0.04243,joystick 0.02010,swing 0.01460,jeep 0.00042
2.33734,-25.00000,parachute 0.53948,swing 0.07285,traffic_light 0.01192,ashcan 0.01099,lifeboat 0.00794,jeep 0.00040
2.36248,-5.00000,power_drill 0.42647,carpenter's_kit 0.18444,screwdriver 0.02533,lawn_mower 0.01933,hammer 0.01323,jeep 0.00029
2.36248,-15.00000,modem 0.08802,switch 0.04114,mouse 0.02167,joystick 0.01853,microphone 0.01699,jeep 0.00027
2.36248,-25.00000,parachute 0.37981,swing 0.08027,traffic_light 0.04191,lifeboat 0.01546,ashcan 0.01501,jeep 0.00058
2.38761,-5.00000,carpenter's_kit 0.33259,power_drill 0.25245,screwdriver 0.04642,hammer 0.02187,plane 0.01305,jeep 0.00029
2.38761,-15.00000,modem 0.16800,switch 0.03078,mouse 0.02642,airship 0.01954,parachute 0.01620,jeep 0.00021
2.38761,-25.00000,parachute 0.42387,traffic_light 0.07719,swing 0.04949,lifeboat 0.01341,ashcan 0.00908,jeep 0.00050
2.41274,-5.00000,carpenter's_kit 0.23093,power_drill 0.18572,screwdriver 0.03737,swab 0.02955,vacuum 0.02197,jeep 0.00036
2.41274,-15.00000,modem 0.22316,switch 0.03957,mouse 0.03287,airship 0.01951,joystick 0.01629,jeep 0.00014
2.41274,-25.00000,parachute 0.41931,traffic_light 0.06966,swing 0.03293,lifeboat 0.01368,tray 0.00844,jeep 0.00057
2.43788,-5.00000,carpenter's_kit 0.22401,power_drill 0.13138,lawn_mower 0.03282,swab 0.03094,vacuum 0.03058,jeep 0.00043
2.43788,-15.00000,modem 0.32468,switch 0.04502,mouse 0.03138,airship 0.01896,mousetrap 0.01833,jeep 0.00011
2.43788,-25.00000,parachute 0.43373,traffic_light 0.06170,swing 0.03725,airship 0.01822,lifeboat 0.00839,jeep 0.00050
2.46301,-5.00000,carpenter's_kit 0.33919,power_drill 0.09238,screwdriver 0.06138,plane 0.05684,swab 0.02058,jeep 0.00031
2.46301,-15.00000,modem 0.37858,switch 0.04811,airship 0.03430,mouse 0.01715,mousetrap 0.01526,jeep 0.00007
2.46301,-25.00000,parachute 0.47555,traffic_light 0.05063,swing 0.03624,airship 0.02202,modem 0.01358,jeep 0.00037
2.48814,-5.00000,carpenter's_kit 0.44790,power_drill 0.10242,screwdriver 0.05817,plane 0.05530,swab 0.01611,jeep 0.00027
2.48814,-15.00000,modem 0.42179,airship 0.04878,switch 0.02932,parachute 0.01992,broom 0.01806,jeep 0.00007
2.48814,-25.00000,parachute 0.48918,traffic_light 0.07103,swing 0.03171,airship 0.02399,modem 0.02225,jeep 0.00025
2.51327,-5.00000,carpenter's_kit 0.20886,power_drill 0.12198,plane 0.10361,swab 0.05193,screwdriver 0.03274,jeep 0.00035
2.51327,-15.00000,modem 0.58227,airship 0.03660,switch 0.01899,joystick 0.01300,cup 0.01223,jeep 0.00005
2.51327,-25.00000,parachute 0.62422,swing 0.04212,traffic_light 0.03231,modem 0.01359,airship 0.01338,jeep 0.00025
2.53841,-5.00000,carpenter's_kit 0.30010,plane 0.07763,power_drill 0.06846,screwdriver 0.05357,swab 0.03143,jeep 0.00027
2.53841,-15.00000,modem 0.66851,airship 0.02382,joystick 0.01432,mousetrap 0.01367,switch 0.01277,jeep 0.00004
2.53841,-25.00000,parachute 0.39033,traffic_light 0.06956,airship 0.06515,modem 0.04945,swing 0.04432,jeep 0.00029
2.56354,-5.00000,carpenter's_kit 0.31873,power_drill 0.10038,plane 0.06317,swab 0.04554,screwdriver 0.03449,jeep 0.00026
2.56354,-15.00000,modem 0.65933,joystick 0.01354,airship 0.01348,swing 0.01283,switch 0.01271,jeep 0.00004
2.56354,-25.00000,airship 0.22859,parachute 0.18625,modem 0.15041,traffic_light 0.07242,swing 0.04638,jeep 0.00018
2.58867,-5.00000,carpenter's_kit 0.33195,swab 0.09599,power_drill 0.07443,plane 0.05808,screwdriver 0.03216,jeep 0.00020
2.58867,-15.00000,modem 0.59479,cup 0.02210,airship 0.02023,swing 0.01845,bobsled 0.01625,jeep 0.00004
2.58867,-25.00000,parachute 0.22332,modem 0.18144,airship 0.11345,traffic_light 0.06944,swing 0.06476,jeep 0.00019
2.61381,-5.00000,carpenter's_kit 0.35095,swab 0.10083,plane 0.08459,power_drill 0.04333,screwdriver 0.03483,jeep 0.00020
2.61381,-15.00000,modem 0.52023,airship 0.03089,bobsled 0.02282,swing 0.01818,cup 0.01747,jeep 0.00005
2.61381,-25.00000,airship 0.17680,modem 0.17222,parachute 0.15094,swing 0.04681,traffic_light 0.03160,jeep 0.00029
2.63894,-5.00000,carpenter's_kit 0.70996,plane 0.05901,screwdriver 0.03303,swab 0.01989,bow 0.01473,jeep 0.00008
2.63894,-15.00000,modem 0.40653,airship 0.03165,swing 0.02667,bobsled 0.02509,cup 0.01890,jeep 0.00007
2.63894,-25.00000,modem 0.21069,parachute 0.09499,mousetrap 0.09403,airship 0.09246,swing 0.05369,jeep 0.00038
2.66407,-5.00000,carpenter's_kit 0.53169,plane 0.08252,swab 0.06933,screwdriver 0.03414,power_drill 0.02032,jeep 0.00016
2.66407,-15.00000,modem 0.36293,airship 0.02855,swing 0.02468,traffic_light 0.02332,electric_guitar 0.02325,jeep 0.00007
2.66407,-25.00000,modem 0.17192,airship 0.14618,mousetrap 0.11456,parachute 0.09644,swing 0.07042,jeep 0.00032
2.68920,-5.00000,carpenter's_kit 0.70501,plane 0.03350,swab 0.03291,screwdriver 0.02739,power_drill 0.01576,jeep 0.00009
2.68920,-15.00000,modem 0.21937,airship 0.04816,parachute 0.03148,bobsled 0.02918,cup 0.02382,jeep 0.00014
2.68920,-25.00000,parachute 0.12564,airship 0.11847,modem 0.09744,mousetrap 0.09595,swing 0.07950,jeep 0.00043
2.71434,-5.00000,carpenter's_kit 0.74929,screwdriver 0.03294,swab 0.02804,power_drill 0.01649,hammer 0.01365,jeep 0.00008
2.71434,-15.00000,modem 0.19108,swing 0.03764,airship 0.03184,parachute 0.02355,mousetrap 0.02351,jeep 0.00014
2.71434,-25.00000,parachute 0.21104,airship 0.11857,swing 0.09774,modem 0.05931,mousetrap 0.04112,jeep 0.00034
2.73947,-5.00000,carpenter's_kit 0.70692,swab 0.04887,screwdriver 0.02568,power_drill 0.02027,hammer 0.01582,jeep 0.00011
2.73947,-15.00000,modem 0.16995,traffic_light 0.04311,park_bench 0.03952,swing 0.03761,bobsled 0.02585,jeep 0.00016
2.73947,-25.00000,parachute 0.21507,swing 0.09737,airship 0.07689,modem 0.06335,traffic_light 0.04410,jeep 0.00029
2.76460,-5.00000,carpenter's_kit 0.45368,swab 0.08883,vacuum 0.04425,plane 0.03113,screwdriver 0.02879,jeep 0.00025
2.76460,-15.00000,modem 0.19046,bobsled 0.04608,swing 0.03738,traffic_light 0.03619,park_bench 0.02239,jeep 0.00011
2.76460,-25.00000,mousetrap 0.18027,swing 0.07028,modem 0.06939,traffic_light 0.06638,parachute 0.06320,jeep 0.00040
2.78973,-5.00000,carpenter's_kit 0.72878,hammer 0.03112,screwdriver 0.03038,swab 0.02793,power_drill 0.01588,jeep 0.00016
2.78973,-15.00000,modem 0.15530,bobsled 0.05323,park_bench 0.04392,rule 0.02722,space_shuttle 0.02416,jeep 0.00013
2.78973,-25.00000,traffic_light 0.11093,swing 0.10661,parachute 0.08485,mousetrap 0.07851,airship 0.06047,jeep 0.00028
2.81487,-5.00000,carpenter's_kit 0.70346,hammer 0.04324,screwdriver 0.02234,swab 0.02229,power_drill 0.01484,jeep 0.00020
2.81487,-15.00000,space_shuttle 0.10328,modem 0.08601,bobsled 0.03696,electric_guitar 0.03011,park_bench 0.02499,jeep 0.00016
2.81487,-25.00000,traffic_light 0.23301,mousetrap 0.10289,swing 0.05556,parachute 0.05183,airship 0.04176,jeep 0.00023
2.84000,-5.00000,carpenter's_kit 0.48841,swab 0.08685,power_drill 0.06191,hammer 0.04934,screwdriver 0.03478,jeep 0.00025
2.84000,-15.00000,modem 0.12364,electric_guitar 0.09885,space_shuttle 0.05567,rule 0.05007,bobsled 0.02678,jeep 0.00015
2.84000,-25.00000,traffic_light 0.22483,mousetrap 0.12165,airship 0.05263,parachute 0.03768,modem 0.03716,jeep 0.00026
2.86513,-5.00000,swab 0.21063,vacuum 0.10249,carpenter's_kit 0.09742,hammer 0.04577,lawn_mower 0.04520,jeep 0.00092
2.86513,-15.00000,modem 0.11866,electric_guitar 0.07181,space_shuttle 0.05816,bobsled 0.04041,rule 0.03602,jeep 0.00015
2.86513,-25.00000,traffic_light 0.26261,mousetrap 0.18411,modem 0.04014,airship 0.02886,park_bench 0.02635,jeep 0.00022
2.89027,-5.00000,swab 0.09938,carpenter's_kit 0.07110,lawn_mower 0.05799,vacuum 0.05004,hammer 0.04804,jeep 0.00146
2.89027,-15.00000,electric_guitar 0.09372,modem 0.06370,space_shuttle 0.06102,mousetrap 0.03235,park_bench 0.02633,jeep 0.00023
2.89027,-25.00000,traffic_light 0.27006,park_bench 0.07675,swing 0.02801,airship 0.02713,space_shuttle 0.02618,jeep 0.00037
2.91540,-5.00000,lawn_mower 0.10352,carpenter's_kit 0.09146,swab 0.07487,power_drill 0.04842,hammer 0.04542,jeep 0.00148
2.91540,-15.00000,electric_guitar 0.09123,modem 0.04393,mousetrap 0.04342,rule 0.03943,space_shuttle 0.03702,jeep 0.00020
2.91540,-25.00000,traffic_light 0.34031,airship 0.05806,parachute 0.02745,park_bench 0.02134,wing 0.01811,jeep 0.00031
2.94053,-5.00000,lawn_mower 0.18318,carpenter's_kit 0.07167,vacuum 0.05317,hammer 0.05134,swab 0.04277,jeep 0.00257
2.94053,-15.00000,bobsled 0.09485,rule 0.04730,modem 0.04296,combination_lock 0.04191,space_shuttle 0.03247,jeep 0.00014
2.94053,-25.00000,traffic_light 0.35502,airship 0.07322,modem 0.01951,wing 0.01842,cup 0.01807,jeep 0.00044
2.96566,-5.00000,lawn_mower 0.11009,swab 0.10180,carpenter's_kit 0.07225,vacuum 0.06478,power_drill 0.03353,jeep 0.00206
2.96566,-15.00000,bobsled 0.08537,traffic_light 0.05946,combination_lock 0.05443,space_shuttle 0.04328,rule 0.03494,jeep 0.00020
2.96566,-25.00000,traffic_light 0.46715,airship 0.05789,cup 0.02678,modem 0.01787,parachute 0.01513,jeep 0.00030
2.99080,-5.00000,lawn_mower 0.10591,swab 0.04400,carpenter's_kit 0.03679,vacuum 0.03406,hammer 0.03000,jeep 0.00404
2.99080,-15.00000,bobsled 0.20661,space_shuttle 0.10804,electric_guitar 0.05188,combination_lock 0.02596,traffic_light 0.02016,jeep 0.00017
2.99080,-25.00000,traffic_light 0.48263,lawn_mower 0.02704,airship 0.02305,cup 0.02212,modem 0.01802,jeep 0.00040
3.01593,-5.00000,lawn_mower 0.50535,vacuum 0.03062,swab 0.02526,carpenter's_kit 0.02504,power_drill 0.02444,jeep 0.00314
3.01593,-15.00000,bobsled 0.14175,space_shuttle 0.09554,combination_lock 0.03400,traffic_light 0.03158,electric_guitar 0.02146,jeep 0.00021
3.01593,-25.00000,traffic_light 0.46326,airship 0.04643,modem 0.03286,cup 0.01422,lawn_mower 0.01263,jeep 0.00042
3.04106,-5.00000,lawn_mower 0.56730,vacuum 0.03616,power_drill 0.02268,swab 0.01885,carpenter's_kit 0.01798,jeep 0.00210
3.04106,-15.00000,bobsled 0.09323,space_shuttle 0.08283,electric_guitar 0.04254,combination_lock 0.02209,barbell 0.02095,jeep 0.00033
3.04106,-25.00000,traffic_light 0.39488,airship 0.08249,modem 0.02492,laptop 0.02187,parachute 0.01742,jeep 0.00057
3.06619,-5.00000,lawn_mower 0.28377,vacuum 0.10353,swab 0.02601,power_drill 0.02348,microphone 0.01823,jeep 0.00178
3.06619,-15.00000,bobsled 0.13045,space_shuttle 0.11527,dumbbell 0.02175,traffic_light 0.02166,barbell 0.01581,jeep 0.00044
3.06619,-25.00000,traffic_light 0.55078,airship 0.05350,laptop 0.01932,modem 0.01898,birdhouse 0.00929,jeep 0.00041
3.09133,-5.00000,lawn_mower 0.13214,vacuum 0.05789,holster 0.02548,power_drill 0.02285,lighter 0.01989,jeep 0.00270
3.09133,-15.00000,space_shuttle 0.05953,bobsled 0.04321,traffic_light 0.03673,dumbbell 0.02134,laptop 0.01845,jeep 0.00050
3.09133,-25.00000,traffic_light 0.55433,airship 0.03930,laptop 0.03536,modem 0.01784,notebook 0.01373,jeep 0.00054
3.11646,-5.00000,digital_watch 0.08221,lawn_mower 0.05358,bulletproof_vest 0.04715,holster 0.04148,vacuum 0.03499,jeep 0.00211
3.11646,-15.00000,traffic_light 0.09338,space_shuttle 0.06568,laptop 0.02685,plunger 0.02372,notebook 0.02227,jeep 0.00054
3.11646,-25.00000,traffic_light 0.45528,laptop 0.09482,notebook 0.04395,airship 0.03552,modem 0.01538,jeep 0.00064
3.14159,-5.00000,digital_watch 0.13123,lighter 0.07853,lawn_mower 0.04797,bulletproof_vest 0.04215,power_drill 0.03626,jeep 0.00192
3.14159,-15.00000,plunger 0.07526,traffic_light 0.05092,space_shuttle 0.04665,notebook 0.02345,bobsled 0.02141,jeep 0.00077
3.14159,-25.00000,traffic_light 0.37306,laptop 0.11698,notebook 0.07300,airship 0.03718,modem 0.01288,jeep 0.00068
3.16673,-5.00000,vacuum 0.10957,power_drill 0.09983,lawn_mower 0.09948,digital_watch 0.03644,bulletproof_vest 0.02597,jeep 0.00162
3.16673,-15.00000,space_shuttle 0.15546,plunger 0.04438,traffic_light 0.04393,notebook 0.02597,bobsled 0.02006,jeep 0.00051
3.16673,-25.00000,traffic_light 0.55005,laptop 0.07787,notebook 0.02947,airship 0.02665,modem 0.01005,jeep 0.00048
3.19186,-5.00000,lawn_mower 0.18982,vacuum 0.13958,power_drill 0.08219,swab 0.02138,microphone 0.01927,jeep 0.00166
3.19186,-15.00000,space_shuttle 0.12058,bobsled 0.05260,electric_guitar 0.03854,traffic_light 0.02396,notebook 0.01525,jeep 0.00036
3.19186,-25.00000,traffic_light 0.49836,laptop 0.05746,airship 0.03022,notebook 0.01684,modem 0.01157,jeep 0.00071
3.21699,-5.00000,lawn_mower 0.44130,vacuum 0.07683,power_drill 0.03568,microphone 0.01550,lighter 0.01345,jeep 0.00191
3.21699,-15.00000,space_shuttle 0.17102,traffic_light 0.09308,bobsled 0.06252,jersey 0.01685,electric_guitar 0.01576,jeep 0.00035
3.21699,-25.00000,traffic_light 0.37537,laptop 0.04525,airship 0.01937,tricycle 0.01927,parachute 0.01530,jeep 0.00102
3.24212,-5.00000,lawn_mower 0.36299,vacuum 0.11613,power_drill 0.07462,swab 0.03810,carpenter's_kit 0.03683,jeep 0.00167
3.24212,-15.00000,space_shuttle 0.07280,traffic_light 0.07024,bobsled 0.06311,electric_guitar 0.03561,jersey 0.02330,jeep 0.00030
3.24212,-25.00000,traffic_light 0.49899,airship 0.04061,laptop 0.02442,modem 0.01872,tricycle 0.01372,jeep 0.00053
3.26726,-5.00000,lawn_mower 0.32218,vacuum 0.16582,carpenter's_kit 0.03629,power_drill 0.03134,swab 0.02833,jeep 0.00254
3.26726,-15.00000,traffic_light 0.14940,space_shuttle 0.05731,bobsled 0.02663,jersey 0.02108,electric_guitar 0.02098,jeep 0.00031
3.26726,-25.00000,traffic_light 0.43826,airship 0.03080,modem 0.02221,tricycle 0.01610,lawn_mower 0.01337,jeep 0.00047
3.29239,-5.00000,carpenter's_kit 0.21082,lawn_mower 0.15529,vacuum 0.13941,power_drill 0.05321,hammer 0.04022,jeep 0.00146
3.29239,-15.00000,space_shuttle 0.13384,bobsled 0.07481,traffic_light 0.04956,electric_guitar 0.03826,jersey 0.01989,jeep 0.00024
3.29239,-25.00000,traffic_light 0.39809,airship 0.03095,modem 0.02193,harvester 0.01461,parachute 0.01297,jeep 0.00044
3.31752,-5.00000,vacuum 0.31755,lawn_mower 0.18615,carpenter's_kit 0.10351,swab 0.03613,power_drill 0.03350,jeep 0.00065
3.31752,-15.00000,space_shuttle 0.13901,bobsled 0.10469,traffic_light 0.06347,electric_guitar 0.01798,jersey 0.01690,jeep 0.00021
3.31752,-25.00000,traffic_light 0.11427,modem 0.03717,airship 0.02772,tricycle 0.02697,parachute 0.01800,jeep 0.00051
3.34265,-5.00000,vacuum 0.39612,carpenter's_kit 0.09194,lawn_mower 0.09006,power_drill 0.06895,swab 0.03386,jeep 0.00055
3.34265,-15.00000,space_shuttle 0.12091,bobsled 0.09130,traffic_light 0.03966,modem 0.02607,electric_guitar 0.02601,jeep 0.00017
3.34265,-25.00000,traffic_light 0.13789,modem 0.02970,mousetrap 0.02854,tricycle 0.02675,parachute 0.01777,jeep 0.00048
3.36779,-5.00000,carpenter's_kit 0.28022,vacuum 0.11594,lawn_mower 0.07106,swab 0.06994,power_drill 0.04375,jeep 0.00076
3.36779,-15.00000,space_shuttle 0.12849,traffic_light 0.07104,modem 0.04110,bobsled 0.02564,rule 0.02422,jeep 0.00018
3.36779,-25.00000,traffic_light 0.19551,birdhouse 0.03215,modem 0.03138,parachute 0.02479,airship 0.02202,jeep 0.00041
3.39292,-5.00000,carpenter's_kit 0.26577,hammer 0.08068,swab 0.06925,vacuum 0.06830,lawn_mower 0.05218,jeep 0.00087
3.39292,-15.00000,modem 0.08349,space_shuttle 0.07882,electric_guitar 0.04998,mousetrap 0.03606,traffic_light 0.03393,jeep 0.00015
3.39292,-25.00000,birdhouse 0.15836,traffic_light 0.08301,mousetrap 0.04004,parachute 0.02940,park_bench 0.02352,jeep 0.00029
3.41805,-5.00000,carpenter's_kit 0.25469,hammer 0.10403,swab 0.07124,vacuum 0.04600,screwdriver 0.02849,jeep 0.00070
3.41805,-15.00000,modem 0.08370,electric_guitar 0.07883,space_shuttle 0.04527,birdhouse 0.03051,traffic_light 0.03023,jeep 0.00011
3.41805,-25.00000,traffic_light 0.09556,birdhouse 0.07945,mousetrap 0.07793,park_bench 0.06890,ashcan 0.02556,jeep 0.00025
3.44319,-5.00000,carpenter's_kit 0.44167,swab 0.09238,hammer 0.08961,screwdriver 0.03130,power_drill 0.02784,jeep 0.00050
3.44319,-15.00000,modem 0.10064,electric_guitar 0.09888,space_shuttle 0.04359,birdhouse 0.03963,traffic_light 0.02231,jeep 0.00008
3.44319,-25.00000,birdhouse 0.08300,traffic_light 0.05744,parachute 0.04678,airship 0.04031,mousetrap 0.03741,jeep 0.00025
3.46832,-5.00000,carpenter's_kit 0.73438,hammer 0.05256,screwdriver 0.03127,swab 0.02106,power_drill 0.01694,jeep 0.00023
3.46832,-15.00000,modem 0.05856,space_shuttle 0.05810,electric_guitar 0.05418,traffic_light 0.03012,bobsled 0.02090,jeep 0.00013
3.46832,-25.00000,parachute 0.14902,ashcan 0.06879,birdhouse 0.05632,swing 0.03106,airship 0.02468,jeep 0.00037
3.49345,-5.00000,carpenter's_kit 0.81386,screwdriver 0.04183,swab 0.02611,hammer 0.01807,power_drill 0.01408,jeep 0.00009
3.49345,-15.00000,modem 0.07903,electric_guitar 0.07251,space_shuttle 0.04712,bobsled 0.03412,airship 0.02624,jeep 0.00014
3.49345,-25.00000,parachute 0.18052,birdhouse 0.06292,airship 0.05226,swing 0.04193,traffic_light 0.03564,jeep 0.00034
3.51858,-5.00000,carpenter's_kit 0.79822,screwdriver 0.01885,power_drill 0.01527,hammer 0.01486,swab 0.01222,jeep 0.00015
3.51858,-15.00000,modem 0.10439,birdhouse 0.05620,airship 0.04326,traffic_light 0.04110,space_shuttle 0.03430,jeep 0.00012
3.51858,-25.00000,mousetrap 0.21149,parachute 0.09166,swing 0.06130,traffic_light 0.04861,airship 0.03397,jeep 0.00035
3.54372,-5.00000,carpenter's_kit 0.66076,swab 0.07403,power_drill 0.03031,vacuum 0.02528,screwdriver 0.02421,jeep 0.00025
3.54372,-15.00000,modem 0.19349,mousetrap 0.07727,airship 0.05489,traffic_light 0.02440,space_shuttle 0.02185,jeep 0.00011
3.54372,-25.00000,parachute 0.24300,swing 0.07161,modem 0.05989,traffic_light 0.04299,whistle 0.03173,jeep 0.00031
3.56885,-5.00000,carpenter's_kit 0.52411,vacuum 0.09573,swab 0.07837,power_drill 0.04736,screwdriver 0.04041,jeep 0.00026
3.56885,-15.00000,modem 0.12329,traffic_light 0.06086,space_shuttle 0.06009,mousetrap 0.04857,airship 0.04840,jeep 0.00012
3.56885,-25.00000,parachute 0.35314,modem 0.06532,airship 0.05695,traffic_light 0.04922,swing 0.04032,jeep 0.00021
3.59398,-5.00000,carpenter's_kit 0.45145,swab 0.13986,vacuum 0.03976,power_drill 0.03643,screwdriver 0.03074,jeep 0.00056
3.59398,-15.00000,modem 0.15449,mousetrap 0.05926,airship 0.05603,traffic_light 0.05504,swing 0.03398,jeep 0.00013
3.59398,-25.00000,parachute 0.23054,modem 0.10803,airship 0.06080,whistle 0.05823,swing 0.05109,jeep 0.00027
3.61911,-5.00000,carpenter's_kit 0.62118,power_drill 0.05095,swab 0.04202,screwdriver 0.03184,vacuum 0.02027,jeep 0.00042
3.61911,-15.00000,modem 0.16960,mousetrap 0.07184,space_shuttle 0.04661,airship 0.04412,bobsled 0.03826,jeep 0.00017
3.61911,-25.00000,parachute 0.32744,modem 0.12192,airship 0.04739,whistle 0.04529,swing 0.02988,jeep 0.00021
3.64425,-5.00000,carpenter's_kit 0.52014,plane 0.06587,screwdriver 0.05482,swab 0.04871,power_drill 0.04218,jeep 0.00034
3.64425,-15.00000,modem 0.25603,airship 0.11019,mousetrap 0.07564,space_shuttle 0.03212,bobsled 0.03038,jeep 0.00013
3.64425,-25.00000,parachute 0.31128,modem 0.12910,airship 0.07497,traffic_light 0.03392,swing 0.01598,jeep 0.00020
3.66938,-5.00000,carpenter's_kit 0.30266,swab 0.15699,plane 0.07503,power_drill 0.05972,screwdriver 0.04633,jeep 0.00050
3.66938,-15.00000,modem 0.37864,airship 0.07105,mousetrap 0.03693,bobsled 0.02292,space_shuttle 0.01906,jeep 0.00013
3.66938,-25.00000,parachute 0.48223,modem 0.10248,airship 0.05782,swing 0.01495,traffic_light 0.01186,jeep 0.00016
3.69451,-5.00000,carpenter's_kit 0.28082,power_drill 0.12436,swab 0.09482,plane 0.08891,screwdriver 0.03692,jeep 0.00049
3.69451,-15.00000,modem 0.45240,airship 0.05633,switch 0.02918,swing 0.01962,bobsled 0.01920,jeep 0.00010
3.69451,-25.00000,parachute 0.50870,modem 0.10297,airship 0.04007,water_bottle 0.01969,swing 0.01518,jeep 0.00014
3.71965,-5.00000,carpenter's_kit 0.21445,power_drill 0.14230,swab 0.07567,plane 0.06022,screwdriver 0.03331,jeep 0.00054
3.71965,-15.00000,modem 0.67667,airship 0.03283,mousetrap 0.02468,switch 0.02221,joystick 0.01013,jeep 0.00006
3.71965,-25.00000,parachute 0.34314,modem 0.12484,airship 0.09480,traffic_light 0.01913,ashcan 0.01494,jeep 0.00019
3.74478,-5.00000,power_drill 0.15198,carpenter's_kit 0.10982,swab 0.05600,plane 0.05268,lawn_mower 0.04697,jeep 0.00089
3.74478,-15.00000,modem 0.64647,switch 0.02958,mousetrap 0.02941,airship 0.01901,swing 0.01608,jeep 0.00007
3.74478,-25.00000,parachute 0.45825,modem 0.06537,airship 0.03769,traffic_light 0.02088,swing 0.01723,jeep 0.00023
3.76991,-5.00000,power_drill 0.24566,carpenter's_kit 0.16728,swab 0.06745,plane 0.03116,screwdriver 0.02574,jeep 0.00053
3.76991,-15.00000,modem 0.71244,switch 0.04006,joystick 0.01513,mousetrap 0.01353,airship 0.01025,jeep 0.00006
3.76991,-25.00000,parachute 0.31400,modem 0.10433,airship 0.10160,traffic_light 0.02742,swing 0.02220,jeep 0.00032
3.79504,-5.00000,power_drill 0.23067,carpenter's_kit 0.19377,swab 0.07653,screwdriver 0.03676,plane 0.03270,jeep 0.00045
3.79504,-15.00000,modem 0.50983,switch 0.04808,joystick 0.03939,mousetrap 0.01338,whistle 0.01182,jeep 0.00011
3.79504,-25.00000,parachute 0.22378,modem 0.16443,airship 0.13227,traffic_light 0.03669,screw 0.01754,jeep 0.00024
3.82018,-5.00000,carpenter's_kit 0.27132,power_drill 0.23458,swab 0.08912,screwdriver 0.05792,plane 0.03330,jeep 0.00029
3.82018,-15.00000,modem 0.26137,switch 0.09759,joystick 0.05106,mousetrap 0.03838,microphone 0.01239,jeep 0.00014
3.82018,-25.00000,modem 0.42537,parachute 0.10598,airship 0.08055,mousetrap 0.03350,screw 0.01725,jeep 0.00014
3.84531,-5.00000,carpenter's_kit 0.27505,power_drill 0.25546,swab 0.09815,screwdriver 0.05193,hammer 0.02187,jeep 0.00031
3.84531,-15.00000,modem 0.19969,switch 0.10769,joystick 0.04362,accordion 0.02528,microphone 0.01948,jeep 0.00018
3.84531,-25.00000,modem 0.26076,parachute 0.24016,airship 0.06306,traffic_light 0.03732,screw 0.02155,jeep 0.00017
3.87044,-5.00000,carpenter's_kit 0.35808,power_drill 0.22522,swab 0.07786,screwdriver 0.04783,hammer 0.02053,jeep 0.00028
3.87044,-15.00000,modem 0.15198,switch 0.10887,joystick 0.03681,accordion 0.02467,traffic_light 0.01458,jeep 0.00022
3.87044,-25.00000,parachute 0.29571,modem 0.12469,swing 0.04437,airship 0.04321,traffic_light 0.03252,jeep 0.00025
3.89557,-5.00000,power_drill 0.26856,carpenter's_kit 0.19657,swab 0.13204,screwdriver 0.03380,hammer 0.02181,jeep 0.00030
3.89557,-15.00000,switch 0.07897,modem 0.07321,accordion 0.06854,joystick 0.03083,traffic_light 0.02139,jeep 0.00029
3.89557,-25.00000,parachute 0.29826,swing 0.05757,traffic_light 0.03423,ashcan 0.03000,modem 0.02815,jeep 0.00035
3.92071,-5.00000,carpenter's_kit 0.24772,power_drill 0.17032,swab 0.12127,screwdriver 0.03386,hammer 0.02062,jeep 0.00036
3.92071,-15.00000,accordion 0.12982,switch 0.06630,modem 0.06164,joystick 0.02737,swing 0.01892,jeep 0.00041
3.92071,-25.00000,parachute 0.22891,traffic_light 0.07749,ashcan 0.04425,swing 0.04333,screw 0.02432,jeep 0.00050
3.94584,-5.00000,power_drill 0.21937,carpenter's_kit 0.16293,chain_saw 0.07884,swab 0.04102,screwdriver 0.01913,jeep 0.00049
3.94584,-15.00000,accordion 0.16777,switch 0.04521,modem 0.04342,joystick 0.02106,swing 0.01365,jeep 0.00041
3.94584,-25.00000,parachute 0.23818,traffic_light 0.10035,ashcan 0.04925,swing 0.04055,birdhouse 0.03222,jeep 0.00050
3.97097,-5.00000,power_drill 0.34207,carpenter's_kit 0.19203,screwdriver 0.01571,swab 0.01464,vacuum 0.01283,jeep 0.00034
3.97097,-15.00000,accordion 0.23654,switch 0.04184,modem 0.02222,swing 0.01733,joystick 0.01669,jeep 0.00043
3.97097,-25.00000,parachute 0.19736,birdhouse 0.11555,traffic_light 0.07351,ashcan 0.04176,swing 0.02430,jeep 0.00044
3.99611,-5.00000,power_drill 0.22856,carpenter's_kit 0.16489,lawn_mower 0.02515,screwdriver 0.02214,swab 0.01534,jeep 0.00043
3.99611,-15.00000,accordion 0.56578,switch 0.03379,joystick 0.01182,modem 0.01067,swing 0.00920,jeep 0.00022
3.99611,-25.00000,parachute 0.19821,traffic_light 0.08283,birdhouse 0.06440,swing 0.04355,ashcan 0.04021,jeep 0.00047
4.02124,-5.00000,carpenter's_kit 0.27311,power_drill 0.24594,screwdriver 0.02662,hammer 0.01612,lawn_mower 0.01391,jeep 0.00035
4.02124,-15.00000,accordion 0.38053,switch 0.02346,swing 0.02234,joystick 0.01551,space_shuttle 0.01094,jeep 0.00033
4.02124,-25.00000,parachute 0.20784,traffic_light 0.12478,birdhouse 0.07131,ashcan 0.06581,swing 0.03971,jeep 0.00042
4.04637,-5.00000,power_drill 0.22879,carpenter's_kit 0.13902,lawn_mower 0.03071,chain_saw 0.02480,screwdriver 0.02072,jeep 0.00040
4.04637,-15.00000,accordion 0.70039,switch 0.00928,joystick 0.00742,swing 0.00722,parachute 0.00611,jeep 0.00018
4.04637,-25.00000,parachute 0.18701,ashcan 0.13449,birdhouse 0.11899,traffic_light 0.09059,swing 0.03715,jeep 0.00034
4.07150,-5.00000,power_drill 0.31757,carpenter's_kit 0.12420,chain_saw 0.03246,lawn_mower 0.02914,screwdriver 0.01775,jeep 0.00036
4.07150,-15.00000,accordion 0.61664,switch 0.01480,swing 0.01147,birdhouse 0.00999,joystick 0.00919,jeep 0.00024
4.07150,-25.00000,parachute 0.23765,ashcan 0.09694,traffic_light 0.09609,birdhouse 0.08937,swing 0.04075,jeep 0.00042
4.09664,-5.00000,carpenter's_kit 0.32623,power_drill 0.26865,screwdriver 0.02874,lawn_mower 0.01728,hammer 0.01109,jeep 0.00033
4.09664,-15.00000,accordion 0.56636,birdhouse 0.01696,swing 0.01328,switch 0.01306,joystick 0.00849,jeep 0.00030
4.09664,-25.00000,parachute 0.27829,swing 0.07518,ashcan 0.06728,traffic_light 0.05844,birdhouse 0.04687,jeep 0.00052
4.12177,-5.00000,carpenter's_kit 0.29376,power_drill 0.18753,screwdriver 0.03494,chain_saw 0.01353,lawn_mower 0.01101,jeep 0.00036
4.12177,-15.00000,accordion 0.56962,birdhouse 0.02753,swing 0.01226,switch 0.00913,joystick 0.00667,jeep 0.00031
4.12177,-25.00000,parachute 0.27375,traffic_light 0.06942,swing 0.06473,ashcan 0.05392,screw 0.02327,jeep 0.00065
4.14690,-5.00000,carpenter's_kit 0.12966,power_drill 0.09747,chain_saw 0.02514,screwdriver 0.02185,lawn_mower 0.01743,jeep 0.00056
4.14690,-15.00000,accordion 0.67770,swing 0.01046,birdhouse 0.00935,switch 0.00825,grand_piano 0.00579,jeep 0.00034
4.14690,-25.00000,parachute 0.25429,traffic_light 0.19516,swing 0.05925,ashcan 0.03456,screw 0.01767,jeep 0.00067
4.17204,-5.00000,carpenter's_kit 0.09091,power_drill 0.06147,chain_saw 0.02941,lawn_mower 0.02478,switch 0.01836,jeep 0.00062
4.17204,-15.00000,accordion 0.52733,swing 0.01765,traffic_light 0.01192,birdhouse 0.01078,switch 0.00977,jeep 0.00053
4.17204,-25.00000,traffic_light 0.44773,birdhouse 0.06619,parachute 0.04983,swing 0.04047,ashcan 0.02482,jeep 0.00041
4.19717,-5.00000,carpenter's_kit 0.14125,power_drill 0.04261,espresso_maker 0.02054,tripod 0.01974,lawn_mower 0.01956,jeep 0.00071
4.19717,-15.00000,accordion 0.74358,swing 0.00884,birdhouse 0.00638,grand_piano 0.00604,traffic_light 0.00603,jeep 0.00024
4.19717,-25.00000,traffic_light 0.46219,birdhouse 0.10883,parachute 0.03697,swing 0.03121,ashcan 0.01548,jeep 0.00037
4.22230,-5.00000,carpenter's_kit 0.18346,power_drill 0.06361,tripod 0.03109,screwdriver 0.02511,joystick 0.02056,jeep 0.00047
4.22230,-15.00000,accordion 0.54293,traffic_light 0.01651,grand_piano 0.01340,swing 0.01328,birdhouse 0.00784,jeep 0.00042
4.22230,-25.00000,traffic_light 0.42661,birdhouse 0.11019,parachute 0.06197,swing 0.03954,ashcan 0.01418,jeep 0.00043
4.24743,-5.00000,carpenter's_kit 0.07780,power_drill 0.06572,tripod 0.06278,lawn_mower 0.02670,screwdriver 0.02096,jeep 0.00055
4.24743,-15.00000,accordion 0.22443,traffic_light 0.04429,birdhouse 0.02874,swing 0.02823,grand_piano 0.01622,jeep 0.00059
4.24743,-25.00000,traffic_light 0.60465,parachute 0.04542,birdhouse 0.04191,swing 0.03808,ashcan 0.00886,jeep 0.00030
4.27257,-5.00000,carpenter's_kit 0.09950,tripod 0.08402,power_drill 0.07037,screwdriver 0.03686,joystick 0.02581,jeep 0.00052
4.27257,-15.00000,accordion 0.17987,traffic_light 0.03009,birdhouse 0.02114,swing 0.02077,grand_piano 0.01686,jeep 0.00072
4.27257,-25.00000,traffic_light 0.44847,birdhouse 0.06733,parachute 0.04829,swing 0.04488,loupe 0.01237,jeep 0.00041
4.29770,-5.00000,carpenter's_kit 0.18022,power_drill 0.09802,screwdriver 0.06417,tripod 0.03502,radio 0.03006,jeep 0.00034
4.29770,-15.00000,accordion 0.29497,grand_piano 0.03358,swing 0.02824,traffic_light 0.02536,birdhouse 0.02049,jeep 0.00044
4.29770,-25.00000,traffic_light 0.37568,birdhouse 0.19193,parachute 0.05291,swing 0.02446,loudspeaker 0.01101,jeep 0.00046
4.32283,-5.00000,carpenter's_kit 0.19868,power_drill 0.15904,screwdriver 0.06991,tripod 0.02793,forklift 0.01714,jeep 0.00025
4.32283,-15.00000,accordion 0.47743,grand_piano 0.05216,upright 0.01720,swing 0.01437,traffic_light 0.01185,jeep 0.00035
4.32283,-25.00000,traffic_light 0.45984,birdhouse 0.35486,parachute 0.01553,swing 0.01456,loudspeaker 0.00705,jeep 0.00018
4.34796,-5.00000,carpenter's_kit 0.19761,power_drill 0.17718,screwdriver 0.06980,tripod 0.02806,hammer 0.02642,jeep 0.00031
4.34796,-15.00000,accordion 0.76351,grand_piano 0.02873,upright 0.01044,swing 0.00390,traffic_light 0.00311,jeep 0.00018
4.34796,-25.00000,traffic_light 0.59441,birdhouse 0.16986,swing 0.03720,parachute 0.01445,loudspeaker 0.00763,jeep 0.00017
4.37310,-5.00000,power_drill 0.21014,carpenter's_kit 0.12732,screwdriver 0.07120,tripod 0.02249,joystick 0.01939,jeep 0.00041
4.37310,-15.00000,accordion 0.78006,grand_piano 0.02273,upright 0.00996,organ 0.00303,birdhouse 0.00289,jeep 0.00016
4.37310,-25.00000,traffic_light 0.66096,birdhouse 0.15793,swing 0.02866,parachute 0.01322,loudspeaker 0.00887,jeep 0.00012
4.39823,-5.00000,power_drill 0.34045,carpenter's_kit 0.05590,vacuum 0.04092,screwdriver 0.03647,lawn_mower 0.03190,jeep 0.00040
4.39823,-15.00000,accordion 0.84224,grand_piano 0.02475,upright 0.00744,birdhouse 0.00370,traffic_light 0.00240,jeep 0.00010
4.39823,-25.00000,traffic_light 0.65033,birdhouse 0.14768,swing 0.03003,parachute 0.02299,loudspeaker 0.01048,jeep 0.00019
4.42336,-5.00000,power_drill 0.26063,carpenter's_kit 0.08495,lawn_mower 0.05000,vacuum 0.03436,screwdriver 0.02864,jeep 0.00044
4.42336,-15.00000,accordion 0.85767,grand_piano 0.02650,upright 0.00766,electric_guitar 0.00279,traffic_light 0.00209,jeep 0.00008
4.42336,-25.00000,birdhouse 0.62920,traffic_light 0.11914,parachute 0.03494,swing 0.02516,loudspeaker 0.01189,jeep 0.00021
4.44850,-5.00000,power_drill 0.28229,carpenter's_kit 0.12380,lawn_mower 0.03954,screwdriver 0.02731,joystick 0.02319,jeep 0.00040
4.44850,-15.00000,accordion 0.84679,grand_piano 0.05282,upright 0.01235,electric_guitar 0.00271,traffic_light 0.00194,jeep 0.00005
4.44850,-25.00000,birdhouse 0.78409,traffic_light 0.07455,parachute 0.01435,swing 0.01036,loudspeaker 0.00603,jeep 0.00013
4.47363,-5.00000,power_drill 0.19567,lawn_mower 0.08251,carpenter's_kit 0.07245,vacuum 0.05208,tripod 0.03239,jeep 0.00046
4.47363,-15.00000,accordion 0.62680,grand_piano 0.03791,birdhouse 0.03739,traffic_light 0.01976,upright 0.00892,jeep 0.00015
4.47363,-25.00000,birdhouse 0.76399,traffic_light 0.09760,parachute 0.00873,swing 0.00500,loudspeaker 0.00471,jeep 0.00017
4.49876,-5.00000,power_drill 0.16945,lawn_mower 0.12753,tripod 0.08477,vacuum 0.08143,joystick 0.02926,jeep 0.00040
4.49876,-15.00000,accordion 0.86406,grand_piano 0.02132,birdhouse 0.00633,upright 0.00484,switch 0.00381,jeep 0.00006
4.49876,-25.00000,birdhouse 0.88143,traffic_light 0.06255,parachute 0.00269,loudspeaker 0.00192,harvester 0.00158,jeep 0.00007
4.52389,-5.00000,lawn_mower 0.15696,power_drill 0.06113,space_bar 0.05542,vacuum 0.05281,typewriter_keyboard 0.04338,jeep 0.00066
4.52389,-15.00000,accordion 0.54299,grand_piano 0.03907,traffic_light 0.02521,switch 0.01695,birdhouse 0.01120,jeep 0.00033
4.52389,-25.00000,birdhouse 0.89038,traffic_light 0.04589,ashcan 0.00198,parachute 0.00197,loudspeaker 0.00182,jeep 0.00008
4.54903,-5.00000,vacuum 0.24979,power_drill 0.12454,lawn_mower 0.11138,tripod 0.06519,space_bar 0.02738,jeep 0.00034
4.54903,-15.00000,traffic_light 0.20207,accordion 0.13436,switch 0.06755,grand_piano 0.01980,birdhouse 0.01780,jeep 0.00046
4.54903,-25.00000,birdhouse 0.80952,traffic_light 0.10302,ashcan 0.00220,parachute 0.00195,carton 0.00170,jeep 0.00012
4.57416,-5.00000,vacuum 0.21009,power_drill 0.17013,lawn_mower 0.10699,tripod 0.03751,space_bar 0.03259,jeep 0.00026
4.57416,-15.00000,traffic_light 0.32347,accordion 0.08750,switch 0.07181,grand_piano 0.01606,space_shuttle 0.01110,jeep 0.00041
4.57416,-25.00000,birdhouse 0.67081,traffic_light 0.21148,mailbox 0.00231,loudspeaker 0.00205,parachute 0.00191,jeep 0.00017
4.59929,-5.00000,vacuum 0.21221,power_drill 0.07050,tripod 0.06403,lawn_mower 0.05847,switch 0.05668,jeep 0.00024
4.59929,-15.00000,traffic_light 0.31357,accordion 0.09842,switch 0.05627,grand_piano 0.01612,hook 0.01188,jeep 0.00049
4.59929,-25.00000,traffic_light 0.81839,birdhouse 0.11178,loudspeaker 0.00193,crane 0.00108,parachute 0.00107,jeep 0.00016
4.62442,-5.00000,vacuum 0.27983,switch 0.07480,projector 0.05368,power_drill 0.04612,lawn_mower 0.04222,jeep 0.00018
4.62442,-15.00000,traffic_light 0.45436,switch 0.05399,accordion 0.05249,hook 0.01288,grand_piano 0.01287,jeep 0.00049
4.62442,-25.00000,traffic_light 0.96113,birdhouse 0.01116,loudspeaker 0.00096,wall_clock 0.00053,crane 0.00051,jeep 0.00007
4.64956,-5.00000,vacuum 0.16863,switch 0.13017,power_drill 0.07709,lawn_mower 0.05420,projector 0.04689,jeep 0.00029
4.64956,-15.00000,traffic_light 0.93226,switch 0.01104,hook 0.00243,grand_piano 0.00101,crane 0.00097,jeep 0.00006
4.64956,-25.00000,traffic_light 0.98912,birdhouse 0.00042,loudspeaker 0.00038,wall_clock 0.00025,spotlight 0.00025,jeep 0.00003
4.67469,-5.00000,vacuum 0.29981,projector 0.09314,switch 0.06973,power_drill 0.06310,lawn_mower 0.05353,jeep 0.00030
4.67469,-15.00000,traffic_light 0.86859,switch 0.04019,birdhouse 0.00901,hook 0.00318,loudspeaker 0.00167,jeep 0.00007
4.67469,-25.00000,traffic_light 0.98633,wall_clock 0.00039,switch 0.00037,loudspeaker 0.00035,spotlight 0.00027,jeep 0.00004
4.69982,-5.00000,vacuum 0.16145,projector 0.12043,switch 0.11372,power_drill 0.11318,lawn_mower 0.03580,jeep 0.00032
4.69982,-15.00000,traffic_light 0.94225,switch 0.02424,birdhouse 0.00126,hook 0.00079,loudspeaker 0.00056,jeep 0.00004
4.69982,-25.00000,traffic_light 0.98463,switch 0.00088,loudspeaker 0.00033,wall_clock 0.00032,spotlight 0.00032,jeep 0.00005
4.72496,-5.00000,vacuum 0.19478,projector 0.13212,switch 0.07965,power_drill 0.07759,lawn_mower 0.03892,jeep 0.00028
4.72496,-15.00000,traffic_light 0.95162,switch 0.02007,birdhouse 0.00170,mailbox 0.00053,loudspeaker 0.00046,jeep 0.00003
4.72496,-25.00000,traffic_light 0.98920,switch 0.00077,wall_clock 0.00020,crane 0.00016,loudspeaker 0.00016,jeep 0.00003
4.75009,-5.00000,vacuum 0.22641,lawn_mower 0.07224,switch 0.07100,projector 0.05246,tripod 0.04853,jeep 0.00035
4.75009,-15.00000,traffic_light 0.87949,switch 0.05719,birdhouse 0.00234,hook 0.00180,mailbox 0.00145,jeep 0.00007
4.75009,-25.00000,traffic_light 0.97849,switch 0.00061,wall_clock 0.00052,crane 0.00044,loudspeaker 0.00036,jeep 0.00007
4.77522,-5.00000,vacuum 0.15825,tripod 0.07969,lawn_mower 0.05467,switch 0.04330,power_drill 0.02776,jeep 0.00044
4.77522,-15.00000,traffic_light 0.59377,switch 0.20537,hook 0.00796,grand_piano 0.00735,accordion 0.00562,jeep 0.00018
4.77522,-25.00000,traffic_light 0.95929,birdhouse 0.00204,wall_clock 0.00114,crane 0.00085,loudspeaker 0.00074,jeep 0.00012
4.80035,-5.00000,vacuum 0.14156,lawn_mower 0.06417,tripod 0.06367,switch 0.03745,power_drill 0.03490,jeep 0.00062
4.80035,-15.00000,accordion 0.14024,traffic_light 0.12912,switch 0.09350,grand_piano 0.06933,upright 0.02832,jeep 0.00072
4.80035,-25.00000,traffic_light 0.92476,birdhouse 0.00333,crane 0.00237,wall_clock 0.00159,ashcan 0.00112,jeep 0.00016
4.82549,-5.00000,tripod 0.14436,vacuum 0.06581,lawn_mower 0.06127,projector 0.05102,power_drill 0.02287,jeep 0.00055
4.82549,-15.00000,accordion 0.55333,grand_piano 0.07167,upright 0.03363,switch 0.02238,electric_guitar 0.01243,jeep 0.00045
4.82549,-25.00000,traffic_light 0.88707,birdhouse 0.00498,crane 0.00322,parachute 0.00283,warplane 0.00146,jeep 0.00021
4.85062,-5.00000,tripod 0.11407,vacuum 0.07848,lawn_mower 0.05716,projector 0.04890,radio 0.04009,jeep 0.00045
4.85062,-15.00000,accordion 0.40570,grand_piano 0.09029,switch 0.04003,upright 0.03533,traffic_light 0.03246,jeep 0.00073
4.85062,-25.00000,traffic_light 0.83882,birdhouse 0.01116,parachute 0.00576,crane 0.00334,swing 0.00186,jeep 0.00031
4.87575,-5.00000,vacuum 0.14018,power_drill 0.09181,lawn_mower 0.07412,joystick 0.04413,tripod 0.04133,jeep 0.00035
4.87575,-15.00000,accordion 0.71120,grand_piano 0.09552,upright 0.03174,traffic_light 0.01643,switch 0.01470,jeep 0.00025
4.87575,-25.00000,traffic_light 0.74965,birdhouse 0.02885,parachute 0.01484,crane 0.00538,swing 0.00490,jeep 0.00039
4.90088,-5.00000,lawn_mower 0.09692,vacuum 0.09187,tripod 0.08037,joystick 0.07137,power_drill 0.06337,jeep 0.00041
4.90088,-15.00000,accordion 0.85603,grand_piano 0.06166,upright 0.02375,traffic_light 0.00546,switch 0.00210,jeep 0.00011
4.90088,-25.00000,traffic_light 0.57512,birdhouse 0.04333,parachute 0.03472,crane 0.01131,swing 0.00966,jeep 0.00060
4.92602,-5.00000,lawn_mower 0.15376,joystick 0.08181,power_drill 0.07664,tripod 0.06208,vacuum 0.06160,jeep 0.00054
4.92602,-15.00000,accordion 0.86480,grand_piano 0.04897,upright 0.02458,switch 0.00434,traffic_light 0.00413,jeep 0.00012
4.92602,-25.00000,traffic_light 0.53917,parachute 0.04105,birdhouse 0.03997,swing 0.01100,crane 0.00893,jeep 0.00071
4.95115,-5.00000,joystick 0.20520,power_drill 0.11654,switch 0.08526,lawn_mower 0.06774,tripod 0.03518,jeep 0.00032
4.95115,-15.00000,accordion 0.90697,grand_piano 0.04239,upright 0.01923,traffic_light 0.00151,pencil_sharpener 0.00122,jeep 0.00007
4.95115,-25.00000,traffic_light 0.37324,parachute 0.08810,birdhouse 0.07748,warplane 0.01171,tray 0.00874,jeep 0.00074
4.97628,-5.00000,switch 0.20080,joystick 0.13274,power_drill 0.07527,radio 0.06198,tripod 0.06189,jeep 0.00028
4.97628,-15.00000,accordion 0.97132,grand_piano 0.00969,upright 0.00557,pencil_sharpener 0.00097,electric_guitar 0.00038,jeep 0.00003
4.97628,-25.00000,parachute 0.18403,traffic_light 0.17804,birdhouse 0.09671,warplane 0.01317,tray 0.01021,jeep 0.00088
5.00142,-5.00000,switch 0.32475,radio 0.09349,joystick 0.07042,power_drill 0.03692,tripod 0.03576,jeep 0.00024
5.00142,-15.00000,accordion 0.97158,grand_piano 0.01267,upright 0.00746,pencil_sharpener 0.00050,traffic_light 0.00029,jeep 0.00002
5.00142,-25.00000,birdhouse 0.19155,parachute 0.16719,traffic_light 0.12981,warplane 0.01509,tray 0.01151,jeep 0.00064
5.02655,-5.00000,switch 0.60157,radio 0.06070,joystick 0.04953,tripod 0.01751,power_drill 0.01277,jeep 0.00014
5.02655,-15.00000,accordion 0.97939,grand_piano 0.00720,upright 0.00512,traffic_light 0.00045,common_iguana 0.00026,jeep 0.00002
5.02655,-25.00000,birdhouse 0.30059,traffic_light 0.22169,parachute 0.08057,warplane 0.01569,tray 0.00871,jeep 0.00050
5.05168,-5.00000,switch 0.28218,radio 0.15592,joystick 0.08008,power_drill 0.03165,tripod 0.03078,jeep 0.00035
5.05168,-15.00000,accordion 0.97292,grand_piano 0.01116,upright 0.00712,traffic_light 0.00063,common_iguana 0.00023,jeep 0.00002
5.05168,-25.00000,traffic_light 0.25537,birdhouse 0.17981,parachute 0.11309,warplane 0.01945,tray 0.00950,jeep 0.00057
5.07681,-5.00000,switch 0.31797,power_drill 0.08620,radio 0.08310,joystick 0.07310,tripod 0.02365,jeep 0.00033
5.07681,-15.00000,accordion 0.95466,grand_piano 0.01847,upright 0.00910,traffic_light 0.00097,pencil_sharpener 0.00066,jeep 0.00004
5.07681,-25.00000,traffic_light 0.32246,parachute 0.21523,birdhouse 0.04059,warplane 0.02484,wing 0.00865,jeep 0.00060
5.10195,-5.00000,switch 0.21111,power_drill 0.19282,radio 0.08330,joystick 0.05562,tripod 0.03316,jeep 0.00040
5.10195,-15.00000,accordion 0.95707,grand_piano 0.01704,upright 0.00871,traffic_light 0.00066,spotlight 0.00056,jeep 0.00003
5.10195,-25.00000,traffic_light 0.27709,birdhouse 0.19873,parachute 0.11638,warplane 0.01955,ashcan 0.01321,jeep 0.00042
5.12708,-5.00000,power_drill 0.28502,switch 0.23686,radio 0.04850,joystick 0.03879,spotlight 0.02167,jeep 0.00043
5.12708,-15.00000,accordion 0.95530,grand_piano 0.02145,upright 0.00884,traffic_light 0.00051,spotlight 0.00038,jeep 0.00003
5.12708,-25.00000,traffic_light 0.54493,birdhouse 0.09996,parachute 0.05761,warplane 0.01098,spotlight 0.00727,jeep 0.00035
5.15221,-5.00000,power_drill 0.48662,switch 0.11094,radio 0.05089,screwdriver 0.02418,carpenter's_kit 0.01589,jeep 0.00050
5.15221,-15.00000,accordion 0.93696,grand_piano 0.02990,upright 0.01264,traffic_light 0.00069,paintbrush 0.00049,jeep 0.00004
5.15221,-25.00000,traffic_light 0.61364,parachute 0.06124,birdhouse 0.04381,warplane 0.00828,wing 0.00501,jeep 0.00042
5.17734,-5.00000,power_drill 0.69864,switch 0.04221,screwdriver 0.02386,carpenter's_kit 0.01629,radio 0.01570,jeep 0.00023
5.17734,-15.00000,accordion 0.90019,grand_piano 0.04298,upright 0.01679,traffic_light 0.00212,space_heater 0.00117,jeep 0.00006
5.17734,-25.00000,traffic_light 0.62106,parachute 0.07925,birdhouse 0.05010,warplane 0.00732,swing 0.00453,jeep 0.00044
5.20248,-5.00000,power_drill 0.72505,carpenter's_kit 0.02537,switch 0.02517,screwdriver 0.02295,radio 0.01927,jeep 0.00017
5.20248,-15.00000,accordion 0.81766,grand_piano 0.02781,birdhouse 0.01499,upright 0.01042,space_heater 0.00615,jeep 0.00015
5.20248,-25.00000,traffic_light 0.29598,parachute 0.13213,birdhouse 0.07575,warplane 0.02215,tray 0.00958,jeep 0.00080
5.22761,-5.00000,power_drill 0.70739,switch 0.04680,carpenter's_kit 0.02482,screwdriver 0.01883,radio 0.01861,jeep 0.00019
5.22761,-15.00000,accordion 0.87520,grand_piano 0.02395,upright 0.00979,birdhouse 0.00632,traffic_light 0.00300,jeep 0.00012
5.22761,-25.00000,traffic_light 0.31700,parachute 0.11855,birdhouse 0.06770,mortarboard 0.02274,warplane 0.02223,jeep 0.00094
5.25274,-5.00000,power_drill 0.57937,switch 0.03922,carpenter's_kit 0.03039,screwdriver 0.02712,school_bus 0.01464,jeep 0.00046
5.25274,-15.00000,accordion 0.52871,birdhouse 0.16334,grand_piano 0.01777,switch 0.01231,space_heater 0.01075,jeep 0.00021
5.25274,-25.00000,parachute 0.26108,traffic_light 0.14552,birdhouse 0.09962,warplane 0.02451,mortarboard 0.01385,jeep 0.00099
5.27788,-5.00000,power_drill 0.38289,school_bus 0.05868,switch 0.04349,screwdriver 0.02369,carpenter's_kit 0.01699,jeep 0.00096
5.27788,-15.00000,birdhouse 0.51206,accordion 0.07202,traffic_light 0.02975,parachute 0.01460,switch 0.00983,jeep 0.00026
5.27788,-25.00000,parachute 0.29728,traffic_light 0.17833,birdhouse 0.06343,warplane 0.04031,snowmobile 0.01395,jeep 0.00091
5.30301,-5.00000,power_drill 0.22580,school_bus 0.03096,switch 0.03053,forklift 0.03021,vacuum 0.02287,jeep 0.00136
5.30301,-15.00000,birdhouse 0.46293,airship 0.03986,traffic_light 0.03845,switch 0.01856,parachute 0.01594,jeep 0.00027
5.30301,-25.00000,parachute 0.33253,traffic_light 0.11040,birdhouse 0.05003,warplane 0.03041,digital_clock 0.01833,jeep 0.00093
5.32814,-5.00000,power_drill 0.21847,switch 0.05912,chain_saw 0.02829,vacuum 0.02661,forklift 0.02514,jeep 0.00207
5.32814,-15.00000,birdhouse 0.63935,traffic_light 0.06332,airship 0.02815,switch 0.00895,parachute 0.00818,jeep 0.00017
5.32814,-25.00000,parachute 0.35704,traffic_light 0.12103,birdhouse 0.05078,warplane 0.02741,balloon 0.01373,jeep 0.00085
5.35327,-5.00000,power_drill 0.19446,school_bus 0.06366,forklift 0.05985,switch 0.05681,chain_saw 0.04510,jeep 0.00376
5.35327,-15.00000,birdhouse 0.86249,airship 0.04368,traffic_light 0.01288,warplane 0.00344,space_heater 0.00333,jeep 0.00004
5.35327,-25.00000,parachute 0.28294,traffic_light 0.18291,birdhouse 0.06345,warplane 0.02525,airship 0.02088,jeep 0.00083
5.37841,-5.00000,school_bus 0.11323,power_drill 0.08995,forklift 0.08061,switch 0.05619,chain_saw 0.03163,jeep 0.00614
5.37841,-15.00000,birdhouse 0.61494,airship 0.20715,toaster 0.01293,warplane 0.01086,space_heater 0.00782,jeep 0.00009
5.37841,-25.00000,parachute 0.21709,traffic_light 0.15490,birdhouse 0.06857,warplane 0.03084,digital_clock 0.02221,jeep 0.00090
5.40354,-5.00000,power_drill 0.18974,school_bus 0.14969,forklift 0.05290,switch 0.02917,chain_saw 0.02861,jeep 0.00333
5.40354,-15.00000,birdhouse 0.64330,airship 0.24263,warplane 0.00942,toaster 0.00763,traffic_light 0.00563,jeep 0.00005
5.40354,-25.00000,parachute 0.13855,traffic_light 0.13644,birdhouse 0.10348,warplane 0.03009,digital_clock 0.02821,jeep 0.00084
5.42867,-5.00000,power_drill 0.29760,switch 0.07460,school_bus 0.05056,forklift 0.03942,screwdriver 0.02106,jeep 0.00213
5.42867,-15.00000,birdhouse 0.60674,airship 0.22966,warplane 0.01138,toaster 0.01118,traffic_light 0.00975,jeep 0.00007
5.42867,-25.00000,parachute 0.25096,traffic_light 0.06969,birdhouse 0.06127,warplane 0.04427,mortarboard 0.03681,jeep 0.00076
5.45380,-5.00000,power_drill 0.29484,school_bus 0.06269,forklift 0.05338,switch 0.03314,vacuum 0.02233,jeep 0.00225
5.45380,-15.00000,airship 0.42519,birdhouse 0.38599,toaster 0.01679,traffic_light 0.01350,parachute 0.00859,jeep 0.00007
5.45380,-25.00000,parachute 0.20969,traffic_light 0.07971,birdhouse 0.05395,warplane 0.03967,mortarboard 0.03701,jeep 0.00076
5.47894,-5.00000,power_drill 0.21540,school_bus 0.09265,forklift 0.04661,switch 0.04055,chain_saw 0.03512,jeep 0.00270
5.47894,-15.00000,airship 0.62361,birdhouse 0.13811,traffic_light 0.02581,toaster 0.02115,modem 0.00835,jeep 0.00009
5.47894,-25.00000,parachute 0.28198,traffic_light 0.05723,warplane 0.03450,birdhouse 0.03425,airship 0.02885,jeep 0.00070
5.50407,-5.00000,power_drill 0.28898,school_bus 0.10439,chain_saw 0.02955,screwdriver 0.02846,switch 0.02768,jeep 0.00399
5.50407,-15.00000,airship 0.65340,birdhouse 0.10833,toaster 0.01761,traffic_light 0.01295,space_heater 0.01113,jeep 0.00010
5.50407,-25.00000,parachute 0.26911,traffic_light 0.03803,mortarboard 0.03695,birdhouse 0.03616,warplane 0.02691,jeep 0.00067
5.52920,-5.00000,school_bus 0.24810,power_drill 0.17131,chain_saw 0.03222,switch 0.02937,screwdriver 0.01824,jeep 0.00596
5.52920,-15.00000,airship 0.57621,birdhouse 0.17833,space_heater 0.01016,traffic_light 0.00890,parachute 0.00861,jeep 0.00012
5.52920,-25.00000,parachute 0.23448,warplane 0.04085,birdhouse 0.03733,traffic_light 0.03351,mortarboard 0.02874,jeep 0.00074
5.55434,-5.00000,power_drill 0.17607,school_bus 0.08918,switch 0.04136,forklift 0.03552,swab 0.02688,jeep 0.00609
5.55434,-15.00000,birdhouse 0.44320,airship 0.31312,toaster 0.01693,traffic_light 0.01401,space_heater 0.01157,jeep 0.00009
5.55434,-25.00000,parachute 0.22000,traffic_light 0.03721,airship 0.03257,warplane 0.03220,birdhouse 0.03187,jeep 0.00076
5.57947,-5.00000,school_bus 0.14542,power_drill 0.11921,forklift 0.02766,vacuum 0.02676,hook 0.02614,jeep 0.00699
5.57947,-15.00000,birdhouse 0.43214,airship 0.33404,toaster 0.01561,traffic_light 0.01136,space_heater 0.01058,jeep 0.00012
5.57947,-25.00000,parachute 0.25876,birdhouse 0.03705,traffic_light 0.03554,warplane 0.02665,balloon 0.02552,jeep 0.00081
5.60460,-5.00000,school_bus 0.13402,power_drill 0.11025,chain_saw 0.04144,switch 0.03220,hook 0.03058,jeep 0.01445
5.60460,-15.00000,birdhouse 0.49997,airship 0.28238,space_heater 0.01563,toaster 0.01325,modem 0.00817,jeep 0.00008
5.60460,-25.00000,parachute 0.23934,traffic_light 0.03807,airship 0.03063,birdhouse 0.02939,balloon 0.02726,jeep 0.00075
5.62973,-5.00000,power_drill 0.14789,school_bus 0.13499,chain_saw 0.10232,vacuum 0.02622,forklift 0.02046,jeep 0.01562
5.62973,-15.00000,birdhouse 0.44785,airship 0.16275,toaster 0.02531,space_heater 0.02501,spotlight 0.01429,jeep 0.00016
5.62973,-25.00000,parachute 0.19040,airship 0.07723,birdhouse 0.03090,traffic_light 0.02863,balloon 0.02444,jeep 0.00060
5.65487,-5.00000,chain_saw 0.13547,power_drill 0.09192,school_bus 0.04613,lawn_mower 0.03198,half_track 0.03194,jeep 0.02770
5.65487,-15.00000,birdhouse 0.55363,airship 0.07488,space_heater 0.02184,toaster 0.02069,spotlight 0.01778,jeep 0.00017
5.65487,-25.00000,parachute 0.18643,airship 0.05691,birdhouse 0.03231,traffic_light 0.02445,balloon 0.01863,jeep 0.00061
5.68000,-5.00000,power_drill 0.09769,school_bus 0.07760,jeep 0.04858,half_track 0.03673,chain_saw 0.03614
5.68000,-15.00000,birdhouse 0.40592,airship 0.09925,spotlight 0.03826,space_heater 0.03125,toaster 0.02941,jeep 0.00023
5.68000,-25.00000,parachute 0.27494,traffic_light 0.02615,birdhouse 0.02393,mortarboard 0.01780,airship 0.01744,jeep 0.00056
5.70513,-5.00000,jeep 0.24949,school_bus 0.08733,amphibian 0.03786,power_drill 0.03702,lawn_mower 0.03517
5.70513,-15.00000,birdhouse 0.32105,airship 0.12462,space_heater 0.04242,spotlight 0.03727,toaster 0.01614,jeep 0.00029
5.70513,-25.00000,parachute 0.23224,airship 0.05262,traffic_light 0.02321,birdhouse 0.01818,balloon 0.01429,jeep 0.00070
5.73027,-5.00000,jeep 0.31147,half_track 0.07686,amphibian 0.03641,school_bus 0.03076,lawn_mower 0.03058
5.73027,-15.00000,birdhouse 0.23125,airship 0.05939,spotlight 0.05559,space_heater 0.03234,toaster 0.02151,jeep 0.00031
5.73027,-25.00000,parachute 0.23876,airship 0.06906,traffic_light 0.02248,birdhouse 0.01663,balloon 0.01554,jeep 0.00072
5.75540,-5.00000,jeep 0.17753,half_track 0.08043,amphibian 0.04934,lawn_mower 0.03744,school_bus 0.03431
5.75540,-15.00000,birdhouse 0.26218,spotlight 0.08751,airship 0.03140,space_heater 0.01826,parachute 0.01595,jeep 0.00024
5.75540,-25.00000,parachute 0.27415,airship 0.09831,traffic_light 0.02445,balloon 0.01647,birdhouse 0.01374,jeep 0.00067
5.78053,-5.00000,jeep 0.26390,school_bus 0.08160,amphibian 0.05333,half_track 0.04164,lawn_mower 0.02268
5.78053,-15.00000,birdhouse 0.40718,spotlight 0.09995,airship 0.01703,space_heater 0.01655,parachute 0.01248,jeep 0.00016
5.78053,-25.00000,parachute 0.20873,airship 0.14896,traffic_light 0.07105,birdhouse 0.02238,balloon 0.01265,jeep 0.00054
5.80566,-5.00000,jeep 0.20563,power_drill 0.05152,half_track 0.05087,amphibian 0.02931,school_bus 0.02902
5.80566,-15.00000,birdhouse 0.55832,spotlight 0.04572,airship 0.01071,space_heater 0.00932,parachute 0.00830,jeep 0.00015
5.80566,-25.00000,airship 0.28434,parachute 0.14881,traffic_light 0.06184,birdhouse 0.01857,balloon 0.01281,jeep 0.00043
5.83080,-5.00000,jeep 0.18784,school_bus 0.06622,half_track 0.04704,power_drill 0.04310,lawn_mower 0.02327
5.83080,-15.00000,birdhouse 0.25950,spotlight 0.10700,airship 0.03741,traffic_light 0.02050,parachute 0.01961,jeep 0.00038
5.83080,-25.00000,airship 0.34704,parachute 0.15660,traffic_light 0.04689,birdhouse 0.01790,balloon 0.01059,jeep 0.00038
5.85593,-5.00000,jeep 0.35486,half_track 0.04420,school_bus 0.04281,amphibian 0.02644,lawn_mower 0.02273
5.85593,-15.00000,spotlight 0.19004,birdhouse 0.11299,airship 0.03748,traffic_light 0.03153,space_heater 0.01660,jeep 0.00047
5.85593,-25.00000,airship 0.21531,parachute 0.20764,traffic_light 0.03802,birdhouse 0.01874,balloon 0.01409,jeep 0.00054
5.88106,-5.00000,jeep 0.35520,school_bus 0.06738,half_track 0.05226,amphibian 0.02884,pickup 0.02114
5.88106,-15.00000,birdhouse 0.20623,spotlight 0.08302,traffic_light 0.03000,parachute 0.01528,airship 0.01201,jeep 0.00047
5.88106,-25.00000,airship 0.25375,parachute 0.14314,birdhouse 0.05765,traffic_light 0.04112,balloon 0.01103,jeep 0.00050
5.90619,-5.00000,jeep 0.40471,school_bus 0.04838,half_track 0.04667,amphibian 0.02435,pickup 0.01692
5.90619,-15.00000,spotlight 0.09130,birdhouse 0.03964,traffic_light 0.03190,parachute 0.01794,binoculars 0.01778,jeep 0.00095
5.90619,-25.00000,airship 0.46810,parachute 0.07104,traffic_light 0.06081,birdhouse 0.05762,warplane 0.00817,jeep 0.00030
5.93133,-5.00000,jeep 0.34107,half_track 0.05570,school_bus 0.03487,amphibian 0.03355,power_drill 0.01948
5.93133,-15.00000,spotlight 0.11360,traffic_light 0.03164,binoculars 0.02901,birdhouse 0.02374,power_drill 0.02139,jeep 0.00096
5.93133,-25.00000,airship 0.42256,traffic_light 0.13794,parachute 0.05664,birdhouse 0.02783,warplane 0.01109,jeep 0.00031
5.95646,-5.00000,jeep 0.56041,half_track 0.05557,amphibian 0.03258,lawn_mower 0.02830,school_bus 0.01496
5.95646,-15.00000,spotlight 0.09552,traffic_light 0.07090,plunger 0.02772,birdhouse 0.02670,binoculars 0.02610,jeep 0.00096
5.95646,-25.00000,traffic_light 0.25802,airship 0.19166,parachute 0.08663,birdhouse 0.02244,warplane 0.02053,jeep 0.00046
5.98159,-5.00000,jeep 0.50717,half_track 0.07423,amphibian 0.03623,school_bus 0.02718,lawn_mower 0.02233
5.98159,-15.00000,spotlight 0.06245,traffic_light 0.06087,binoculars 0.03224,plunger 0.02267,tricycle 0.02204,jeep 0.00162
5.98159,-25.00000,airship 0.17242,traffic_light 0.16985,parachute 0.11129,warplane 0.04585,birdhouse 0.02342,jeep 0.00048
6.00673,-5.00000,jeep 0.44878,half_track 0.06834,amphibian 0.04420,school_bus 0.03377,lawn_mower 0.02156
6.00673,-15.00000,traffic_light 0.07364,spotlight 0.03143,parachute 0.02286,binoculars 0.02030,park_bench 0.01405,jeep 0.00173
6.00673,-25.00000,traffic_light 0.18442,parachute 0.15960,airship 0.10805,warplane 0.03941,birdhouse 0.02300,jeep 0.00044
6.03186,-5.00000,jeep 0.48862,half_track 0.13482,amphibian 0.04221,lawn_mower 0.01634,golfcart 0.01486
6.03186,-15.00000,traffic_light 0.06469,spotlight 0.06330,tricycle 0.02965,binoculars 0.02661,plunger 0.01954,jeep 0.00244
6.03186,-25.00000,traffic_light 0.33511,parachute 0.12216,airship 0.10572,warplane 0.03053,harvester 0.02174,jeep 0.00038
6.05699,-5.00000,jeep 0.59984,half_track 0.04960,amphibian 0.02495,lawn_mower 0.02196,golfcart 0.00998
6.05699,-15.00000,traffic_light 0.05168,tricycle 0.04785,spotlight 0.02125,loupe 0.01717,parachute 0.01520,jeep 0.00727
6.05699,-25.00000,traffic_light 0.45597,airship 0.11428,parachute 0.03494,warplane 0.03320,harvester 0.02837,jeep 0.00053
6.08212,-5.00000,jeep 0.40493,lawn_mower 0.06148,amphibian 0.05398,half_track 0.04660,power_drill 0.01815
6.08212,-15.00000,tricycle 0.06716,traffic_light 0.03076,loupe 0.02770,jeep 0.01886,spotlight 0.01665
6.08212,-25.00000,traffic_light 0.29625,airship 0.14562,parachute 0.06896,warplane 0.04029,harvester 0.02725,jeep 0.00077
6.10726,-5.00000,jeep 0.42679,lawn_mower 0.08659,half_track 0.04394,amphibian 0.04192,golfcart 0.01438
6.10726,-15.00000,tricycle 0.07849,jeep 0.03959,traffic_light 0.02336,spotlight 0.01494,loupe 0.01466
6.10726,-25.00000,traffic_light 0.25224,airship 0.09345,parachute 0.07932,warplane 0.04107,harvester 0.03406,jeep 0.00102
6.13239,-5.00000,jeep 0.43722,lawn_mower 0.09622,half_track 0.05313,amphibian 0.04419,golfcart 0.01758
6.13239,-15.00000,jeep 0.03590,tricycle 0.03447,school_bus 0.01534,traffic_light 0.01506,tractor 0.01424
6.13239,-25.00000,traffic_light 0.26488,parachute 0.08114,airship 0.06860,warplane 0.04175,harvester 0.03503,jeep 0.00111
6.15752,-5.00000,jeep 0.37279,half_track 0.18881,lawn_mower 0.06028,amphibian 0.03795,golfcart 0.01855
6.15752,-15.00000,jeep 0.05623,tricycle 0.05613,lawn_mower 0.03814,amphibian 0.03114,tractor 0.01707
6.15752,-25.00000,traffic_light 0.25262,harvester 0.04973,parachute 0.04373,airship 0.04147,warplane 0.02458,jeep 0.00172
6.18265,-5.00000,jeep 0.55150,half_track 0.10980,lawn_mower 0.04048,pickup 0.03612,amphibian 0.02071
6.18265,-15.00000,tricycle 0.09743,lawn_mower 0.04944,harvester 0.02612,tractor 0.01874,spotlight 0.01610,jeep 0.01337
6.18265,-25.00000,traffic_light 0.19014,harvester 0.06735,parachute 0.04385,lawn_mower 0.03198,warplane 0.01553,jeep 0.00227
6.20779,-5.00000,jeep 0.71861,lawn_mower 0.03526,half_track 0.03461,pickup 0.02672,amphibian 0.01164
6.20779,-15.00000,lawn_mower 0.24460,tricycle 0.16223,harvester 0.03751,tractor 0.03439,jeep 0.01790
6.20779,-25.00000,traffic_light 0.20938,harvester 0.05792,lawn_mower 0.04124,modem 0.01583,parachute 0.01435,jeep 0.00289
6.23292,-5.00000,jeep 0.71337,lawn_mower 0.05972,half_track 0.02118,pickup 0.01606,amphibian 0.01147
6.23292,-15.00000,tricycle 0.28695,lawn_mower 0.15628,harvester 0.02596,tractor 0.02056,jeep 0.01555
6.23292,-25.00000,traffic_light 0.18706,harvester 0.04044,lawn_mower 0.02925,modem 0.02512,tricycle 0.02224,jeep 0.00284
6.25805,-5.00000,jeep 0.44564,lawn_mower 0.09129,pickup 0.05766,half_track 0.04345,amphibian 0.02417
6.25805,-15.00000,tricycle 0.35997,lawn_mower 0.21529,harvester 0.02708,tractor 0.01385,jeep 0.00816
6.25805,-25.00000,traffic_light 0.14153,harvester 0.03559,lawn_mower 0.02386,tricycle 0.02136,modem 0.01995,jeep 0.00369
6.28319,-5.00000,jeep 0.40282,lawn_mower 0.15400,pickup 0.04329,golfcart 0.02019,school_bus 0.01654
6.28319,-15.00000,lawn_mower 0.58754,tricycle 0.06598,harvester 0.06034,tractor 0.02872,jeep 0.00645
6.28319,-25.00000,traffic_light 0.16614,harvester 0.03338,modem 0.01824,lawn_mower 0.01603,tricycle 0.01427,jeep 0.00397
